# Blender v2.74 (sub 0) OBJ File: 'Stuvio_3D_frames.blend'
# www.blender.org
o Xshape_Cylinder.036
v -2.744744 5.759381 1.157031
v 2.950215 -4.104577 1.157029
v -2.759864 5.750652 1.148063
v 2.935096 -4.113307 1.148061
v -2.775671 5.741525 1.140850
v 2.919288 -4.122433 1.140848
v -2.792016 5.732089 1.135461
v 2.902943 -4.131870 1.135458
v -2.808739 5.722434 1.131947
v 2.886220 -4.141525 1.131945
v -2.825679 5.712653 1.130343
v 2.869280 -4.151305 1.130341
v -2.842675 5.702841 1.130664
v 2.852284 -4.161118 1.130662
v -2.859561 5.693091 1.132907
v 2.835398 -4.170867 1.132905
v -2.876175 5.683499 1.137051
v 2.818784 -4.180459 1.137049
v -2.892358 5.674156 1.143055
v 2.802601 -4.189802 1.143053
v -2.907953 5.665152 1.150861
v 2.787006 -4.198806 1.150859
v -2.922811 5.656574 1.160396
v 2.772149 -4.207384 1.160393
v -2.936787 5.648505 1.171565
v 2.758172 -4.215453 1.171563
v -2.949748 5.641022 1.184263
v 2.745211 -4.222937 1.184261
v -2.961569 5.634197 1.198367
v 2.733390 -4.229761 1.198365
v -2.972136 5.628097 1.213740
v 2.722823 -4.235862 1.213738
v -2.981346 5.622778 1.230236
v 2.713613 -4.241180 1.230234
v -2.989113 5.618295 1.247695
v 2.705847 -4.245664 1.247692
v -2.995360 5.614688 1.265948
v 2.699600 -4.249270 1.265946
v -3.000027 5.611993 1.284821
v 2.694932 -4.251965 1.284819
v -3.003070 5.610237 1.304131
v 2.691890 -4.253722 1.304129
v -3.004459 5.609435 1.323692
v 2.690500 -4.254524 1.323690
v -3.004181 5.609595 1.343317
v 2.690778 -4.254363 1.343315
v -3.002238 5.610717 1.362815
v 2.692721 -4.253242 1.362813
v -2.998650 5.612789 1.382000
v 2.696309 -4.251170 1.381998
v -2.993450 5.615790 1.400686
v 2.701509 -4.248168 1.400684
v -2.986689 5.619694 1.418694
v 2.708270 -4.244265 1.418692
v -2.978433 5.624461 1.435850
v 2.716527 -4.239498 1.435847
v -2.968759 5.630046 1.451988
v 2.726200 -4.233912 1.451986
v -2.957762 5.636395 1.466954
v 2.737197 -4.227564 1.466952
v -2.945549 5.643446 1.480604
v 2.749411 -4.220512 1.480602
v -2.932235 5.651134 1.492805
v 2.762725 -4.212825 1.492803
v -2.917949 5.659381 1.503441
v 2.777010 -4.204577 1.503439
v -2.902829 5.668110 1.512409
v 2.792130 -4.195848 1.512407
v -2.887021 5.677237 1.519622
v 2.807938 -4.186721 1.519620
v -2.870677 5.686674 1.525011
v 2.824282 -4.177285 1.525009
v -2.853954 5.696329 1.528525
v 2.841005 -4.167630 1.528523
v -2.837013 5.706109 1.530129
v 2.857946 -4.157849 1.530127
v -2.820018 5.715921 1.529808
v 2.874941 -4.148037 1.529806
v -2.803132 5.725671 1.527565
v 2.891827 -4.138288 1.527562
v -2.786518 5.735263 1.523421
v 2.908442 -4.128695 1.523419
v -2.770335 5.744606 1.517417
v 2.924624 -4.119352 1.517415
v -2.754740 5.753610 1.509610
v 2.940219 -4.110348 1.509608
v -2.739882 5.762188 1.500076
v 2.955077 -4.101770 1.500074
v -2.725906 5.770257 1.488907
v 2.969053 -4.093701 1.488904
v -2.712945 5.777740 1.476209
v 2.982014 -4.086218 1.476207
v -2.701124 5.784565 1.462105
v 2.993835 -4.079393 1.462103
v -2.690557 5.790666 1.446732
v 3.004402 -4.073293 1.446729
v -2.681347 5.795984 1.430236
v 3.013613 -4.067975 1.430234
v -2.673580 5.800467 1.412778
v 3.021379 -4.063491 1.412775
v -2.667333 5.804074 1.394524
v 3.027626 -4.059884 1.394522
v -2.662666 5.806769 1.375651
v 3.032293 -4.057189 1.375649
v -2.659623 5.808526 1.356341
v 3.035336 -4.055433 1.356339
v -2.658234 5.809328 1.336780
v 3.036725 -4.054631 1.336778
v -2.658512 5.809167 1.317156
v 3.036447 -4.054791 1.317154
v -2.660455 5.808045 1.297657
v 3.034504 -4.055913 1.297655
v -2.664043 5.805974 1.278473
v 3.030916 -4.057985 1.278471
v -2.669243 5.802972 1.259786
v 3.025717 -4.060987 1.259784
v -2.676003 5.799068 1.241779
v 3.018956 -4.064890 1.241777
v -2.684260 5.794302 1.224623
v 3.010699 -4.069657 1.224621
v -2.693933 5.788717 1.208484
v 3.001026 -4.075242 1.208482
v -2.704930 5.782368 1.193518
v 2.990029 -4.081591 1.193516
v -2.717144 5.775316 1.179868
v 2.977815 -4.088643 1.179866
v -2.730458 5.767629 1.167667
v 2.964501 -4.096329 1.167665
v -2.917950 -4.104577 1.157030
v 2.777011 5.759380 1.157030
v -2.902831 -4.113306 1.148062
v 2.792131 5.750651 1.148062
v -2.887022 -4.122433 1.140849
v 2.807939 5.741525 1.140849
v -2.870678 -4.131869 1.135459
v 2.824283 5.732088 1.135460
v -2.853956 -4.141524 1.131946
v 2.841006 5.722433 1.131946
v -2.837015 -4.151305 1.130342
v 2.857947 5.712652 1.130342
v -2.820019 -4.161117 1.130663
v 2.874942 5.702840 1.130663
v -2.803133 -4.170866 1.132906
v 2.891828 5.693090 1.132906
v -2.786519 -4.180459 1.137050
v 2.908442 5.683498 1.137050
v -2.770336 -4.189801 1.143054
v 2.924625 5.674155 1.143054
v -2.754741 -4.198805 1.150860
v 2.940220 5.665152 1.150860
v -2.739884 -4.207384 1.160394
v 2.955078 5.656573 1.160395
v -2.725907 -4.215453 1.171564
v 2.969054 5.648504 1.171564
v -2.712946 -4.222936 1.184262
v 2.982015 5.641021 1.184262
v -2.701125 -4.229761 1.198366
v 2.993837 5.634196 1.198366
v -2.690559 -4.235862 1.213739
v 3.004403 5.628096 1.213740
v -2.681348 -4.241179 1.230235
v 3.013614 5.622778 1.230235
v -2.673581 -4.245663 1.247693
v 3.021380 5.618294 1.247694
v -2.667334 -4.249269 1.265947
v 3.027627 5.614687 1.265947
v -2.662667 -4.251965 1.284820
v 3.032294 5.611993 1.284820
v -2.659624 -4.253721 1.304130
v 3.035337 5.610236 1.304130
v -2.658235 -4.254523 1.323691
v 3.036726 5.609434 1.323691
v -2.658514 -4.254363 1.343316
v 3.036447 5.609594 1.343316
v -2.660455 -4.253242 1.362814
v 3.034505 5.610716 1.362814
v -2.664044 -4.251169 1.381999
v 3.030917 5.612788 1.381999
v -2.669244 -4.248167 1.400685
v 3.025717 5.615790 1.400685
v -2.676005 -4.244264 1.418692
v 3.018956 5.619693 1.418693
v -2.684261 -4.239497 1.435848
v 3.010700 5.624460 1.435849
v -2.693934 -4.233912 1.451987
v 3.001026 5.630045 1.451987
v -2.704931 -4.227563 1.466954
v 2.990030 5.636394 1.466954
v -2.717146 -4.220511 1.480603
v 2.977815 5.643446 1.480603
v -2.730459 -4.212825 1.492804
v 2.964502 5.651133 1.492804
v -2.744745 -4.204576 1.503440
v 2.950216 5.659380 1.503440
v -2.759865 -4.195848 1.512408
v 2.935096 5.668110 1.512408
v -2.775673 -4.186721 1.519621
v 2.919288 5.677237 1.519621
v -2.792017 -4.177284 1.525010
v 2.902944 5.686673 1.525011
v -2.808740 -4.167629 1.528524
v 2.886222 5.696328 1.528524
v -2.825680 -4.157848 1.530128
v 2.869281 5.706109 1.530128
v -2.842676 -4.148036 1.529806
v 2.852286 5.715921 1.529807
v -2.859562 -4.138288 1.527563
v 2.835399 5.725670 1.527564
v -2.876177 -4.128695 1.523420
v 2.818785 5.735263 1.523420
v -2.892359 -4.119352 1.517416
v 2.802602 5.744606 1.517416
v -2.907954 -4.110348 1.509609
v 2.787007 5.753610 1.509610
v -2.922812 -4.101770 1.500075
v 2.772149 5.762187 1.500075
v -2.936788 -4.093700 1.488906
v 2.758173 5.770257 1.488906
v -2.949749 -4.086218 1.476207
v 2.745212 5.777740 1.476208
v -2.961570 -4.079392 1.462104
v 2.733392 5.784564 1.462104
v -2.972136 -4.073292 1.446730
v 2.722825 5.790665 1.446731
v -2.981348 -4.067974 1.430235
v 2.713614 5.795983 1.430235
v -2.989113 -4.063490 1.412776
v 2.705848 5.800467 1.412777
v -2.995360 -4.059884 1.394523
v 2.699601 5.804073 1.394523
v -3.000028 -4.057189 1.375650
v 2.694933 5.806768 1.375650
v -3.003071 -4.055432 1.356340
v 2.691890 5.808525 1.356340
v -3.004460 -4.054630 1.336779
v 2.690501 5.809327 1.336779
v -3.004182 -4.054791 1.317155
v 2.690779 5.809166 1.317155
v -3.002239 -4.055912 1.297656
v 2.692722 5.808045 1.297656
v -2.998651 -4.057984 1.278472
v 2.696310 5.805973 1.278472
v -2.993451 -4.060986 1.259785
v 2.701510 5.802971 1.259785
v -2.986691 -4.064889 1.241778
v 2.708270 5.799067 1.241778
v -2.978434 -4.069656 1.224622
v 2.716527 5.794301 1.224622
v -2.968761 -4.075241 1.208483
v 2.726200 5.788716 1.208483
v -2.957764 -4.081590 1.193517
v 2.737197 5.782367 1.193517
v -2.945550 -4.088642 1.179867
v 2.749411 5.775315 1.179868
v -2.932236 -4.096329 1.167666
v 2.762725 5.767629 1.167666
vn 0.500000 -0.866000 0.000000
vn -0.500000 0.866000 0.000000
vn 0.500000 0.866000 -0.000000
vn -0.500000 -0.866000 -0.000000
vn 0.433000 0.250000 -0.866000
vn 0.357400 0.206400 -0.910900
vn 0.278400 0.160700 -0.946900
vn 0.196600 0.113500 -0.973900
vn 0.196700 0.113500 -0.973900
vn 0.113000 0.065300 -0.991400
vn 0.028300 0.016400 -0.999500
vn -0.056600 -0.032700 -0.997900
vn -0.141100 -0.081400 -0.986600
vn -0.224100 -0.129400 -0.965900
vn -0.305100 -0.176100 -0.935900
vn -0.383000 -0.221100 -0.896900
vn -0.457300 -0.264000 -0.849200
vn -0.527200 -0.304400 -0.793400
vn -0.592000 -0.341800 -0.729900
vn -0.651100 -0.375900 -0.659300
vn -0.703900 -0.406400 -0.582500
vn -0.750000 -0.433000 -0.500000
vn -0.788800 -0.455400 -0.412700
vn -0.820100 -0.473500 -0.321400
vn -0.843400 -0.486900 -0.227100
vn -0.858600 -0.495700 -0.130500
vn -0.865600 -0.499700 -0.032700
vn -0.864200 -0.498900 0.065400
vn -0.854500 -0.493300 0.162900
vn -0.836500 -0.483000 0.258800
vn -0.810500 -0.468000 0.352300
vn -0.776700 -0.448400 0.442300
vn -0.735400 -0.424600 0.528100
vn -0.687100 -0.396700 0.608800
vn -0.632100 -0.364900 0.683600
vn -0.571000 -0.329700 0.751800
vn -0.504400 -0.291200 0.812800
vn -0.433000 -0.250000 0.866000
vn -0.357400 -0.206400 0.910900
vn -0.278400 -0.160700 0.946900
vn -0.196700 -0.113500 0.973900
vn -0.113000 -0.065300 0.991400
vn -0.028300 -0.016400 0.999500
vn 0.056600 0.032700 0.997900
vn 0.141100 0.081400 0.986600
vn 0.224100 0.129400 0.965900
vn 0.305100 0.176100 0.935900
vn 0.383000 0.221100 0.896900
vn 0.457300 0.264000 0.849200
vn 0.527200 0.304400 0.793400
vn 0.592000 0.341800 0.729900
vn 0.651100 0.375900 0.659300
vn 0.703900 0.406400 0.582500
vn 0.750000 0.433000 0.500000
vn 0.788800 0.455400 0.412700
vn 0.820100 0.473500 0.321400
vn 0.843400 0.486900 0.227100
vn 0.858600 0.495700 0.130500
vn 0.865600 0.499700 0.032700
vn 0.864200 0.498900 -0.065400
vn 0.854500 0.493300 -0.162900
vn 0.836500 0.483000 -0.258800
vn 0.810500 0.468000 -0.352200
vn 0.776700 0.448400 -0.442300
vn 0.735400 0.424600 -0.528100
vn 0.687100 0.396700 -0.608800
vn 0.632100 0.364900 -0.683600
vn 0.571000 0.329700 -0.751800
vn 0.504400 0.291200 -0.812800
vn -0.433000 0.250000 -0.866000
vn -0.357400 0.206400 -0.910900
vn -0.278400 0.160700 -0.946900
vn -0.196700 0.113500 -0.973900
vn -0.113000 0.065300 -0.991400
vn -0.028300 0.016400 -0.999500
vn 0.056600 -0.032700 -0.997900
vn 0.141100 -0.081400 -0.986600
vn 0.224200 -0.129400 -0.965900
vn 0.305100 -0.176100 -0.935900
vn 0.383000 -0.221100 -0.896900
vn 0.457300 -0.264000 -0.849200
vn 0.527200 -0.304400 -0.793400
vn 0.592000 -0.341800 -0.729900
vn 0.651100 -0.375900 -0.659300
vn 0.703900 -0.406400 -0.582500
vn 0.750000 -0.433000 -0.500000
vn 0.788800 -0.455400 -0.412700
vn 0.820100 -0.473500 -0.321400
vn 0.843400 -0.486900 -0.227100
vn 0.858600 -0.495700 -0.130500
vn 0.865600 -0.499700 -0.032700
vn 0.864200 -0.498900 0.065400
vn 0.854500 -0.493300 0.162900
vn 0.836500 -0.483000 0.258800
vn 0.810500 -0.468000 0.352300
vn 0.776700 -0.448400 0.442300
vn 0.735400 -0.424600 0.528100
vn 0.687100 -0.396700 0.608800
vn 0.632100 -0.364900 0.683600
vn 0.571000 -0.329700 0.751800
vn 0.504400 -0.291200 0.812800
vn 0.433000 -0.250000 0.866000
vn 0.357400 -0.206400 0.910900
vn 0.278400 -0.160700 0.946900
vn 0.196600 -0.113500 0.973900
vn 0.113000 -0.065300 0.991400
vn 0.028300 -0.016400 0.999500
vn -0.056600 0.032700 0.997900
vn -0.141100 0.081400 0.986600
vn -0.224100 0.129400 0.965900
vn -0.305100 0.176100 0.935900
vn -0.383000 0.221100 0.896900
vn -0.457300 0.264000 0.849200
vn -0.527200 0.304400 0.793300
vn -0.527200 0.304400 0.793400
vn -0.592000 0.341800 0.729900
vn -0.651100 0.375900 0.659300
vn -0.703900 0.406400 0.582500
vn -0.750000 0.433000 0.500000
vn -0.788800 0.455400 0.412700
vn -0.820100 0.473500 0.321500
vn -0.843400 0.486900 0.227100
vn -0.858600 0.495700 0.130500
vn -0.865600 0.499700 0.032700
vn -0.864200 0.498900 -0.065400
vn -0.854500 0.493300 -0.162900
vn -0.836500 0.483000 -0.258800
vn -0.810500 0.468000 -0.352200
vn -0.776700 0.448400 -0.442300
vn -0.735400 0.424600 -0.528100
vn -0.687100 0.396700 -0.608800
vn -0.632100 0.364900 -0.683600
vn -0.571000 0.329700 -0.751800
vn -0.504400 0.291200 -0.812800
s off
f 4//1 2//1 128//1 126//1 124//1 122//1 120//1 118//1 116//1 114//1 112//1 110//1 108//1 106//1 104//1 102//1 100//1 98//1 96//1 94//1 92//1 90//1 88//1 86//1 84//1 82//1 80//1 78//1 76//1 74//1 72//1 70//1 68//1 66//1 64//1 62//1 60//1 58//1 56//1 54//1 52//1 50//1 48//1 46//1 44//1 42//1 40//1 38//1 36//1 34//1 32//1 30//1 28//1 26//1 24//1 22//1 20//1 18//1 16//1 14//1 12//1 10//1 8//1 6//1
f 1//2 3//2 5//2 7//2 9//2 11//2 13//2 15//2 17//2 19//2 21//2 23//2 25//2 27//2 29//2 31//2 33//2 35//2 37//2 39//2 41//2 43//2 45//2 47//2 49//2 51//2 53//2 55//2 57//2 59//2 61//2 63//2 65//2 67//2 69//2 71//2 73//2 75//2 77//2 79//2 81//2 83//2 85//2 87//2 89//2 91//2 93//2 95//2 97//2 99//2 101//2 103//2 105//2 107//2 109//2 111//2 113//2 115//2 117//2 119//2 121//2 123//2 125//2 127//2
f 132//3 130//3 256//3 254//3 252//3 250//3 248//3 246//3 244//3 242//3 240//3 238//3 236//3 234//3 232//3 230//3 228//3 226//3 224//3 222//3 220//3 218//3 216//3 214//3 212//3 210//3 208//3 206//3 204//3 202//3 200//3 198//3 196//3 194//3 192//3 190//3 188//3 186//3 184//3 182//3 180//3 178//3 176//3 174//3 172//3 170//3 168//3 166//3 164//3 162//3 160//3 158//3 156//3 154//3 152//3 150//3 148//3 146//3 144//3 142//3 140//3 138//3 136//3 134//3
f 129//4 131//4 133//4 135//4 137//4 139//4 141//4 143//4 145//4 147//4 149//4 151//4 153//4 155//4 157//4 159//4 161//4 163//4 165//4 167//4 169//4 171//4 173//4 175//4 177//4 179//4 181//4 183//4 185//4 187//4 189//4 191//4 193//4 195//4 197//4 199//4 201//4 203//4 205//4 207//4 209//4 211//4 213//4 215//4 217//4 219//4 221//4 223//4 225//4 227//4 229//4 231//4 233//4 235//4 237//4 239//4 241//4 243//4 245//4 247//4 249//4 251//4 253//4 255//4
s 1
f 1//5 2//5 4//6 3//6
f 3//6 4//6 6//7 5//7
f 5//7 6//7 8//8 7//9
f 7//9 8//8 10//10 9//10
f 9//10 10//10 12//11 11//11
f 11//11 12//11 14//12 13//12
f 13//12 14//12 16//13 15//13
f 15//13 16//13 18//14 17//14
f 17//14 18//14 20//15 19//15
f 19//15 20//15 22//16 21//16
f 21//16 22//16 24//17 23//17
f 23//17 24//17 26//18 25//18
f 25//18 26//18 28//19 27//19
f 27//19 28//19 30//20 29//20
f 29//20 30//20 32//21 31//21
f 31//21 32//21 34//22 33//22
f 33//22 34//22 36//23 35//23
f 35//23 36//23 38//24 37//24
f 37//24 38//24 40//25 39//25
f 39//25 40//25 42//26 41//26
f 41//26 42//26 44//27 43//27
f 43//27 44//27 46//28 45//28
f 45//28 46//28 48//29 47//29
f 47//29 48//29 50//30 49//30
f 49//30 50//30 52//31 51//31
f 51//31 52//31 54//32 53//32
f 53//32 54//32 56//33 55//33
f 55//33 56//33 58//34 57//34
f 57//34 58//34 60//35 59//35
f 59//35 60//35 62//36 61//36
f 61//36 62//36 64//37 63//37
f 63//37 64//37 66//38 65//38
f 65//38 66//38 68//39 67//39
f 67//39 68//39 70//40 69//40
f 69//40 70//40 72//41 71//41
f 71//41 72//41 74//42 73//42
f 73//42 74//42 76//43 75//43
f 75//43 76//43 78//44 77//44
f 77//44 78//44 80//45 79//45
f 79//45 80//45 82//46 81//46
f 81//46 82//46 84//47 83//47
f 83//47 84//47 86//48 85//48
f 85//48 86//48 88//49 87//49
f 87//49 88//49 90//50 89//50
f 89//50 90//50 92//51 91//51
f 91//51 92//51 94//52 93//52
f 93//52 94//52 96//53 95//53
f 95//53 96//53 98//54 97//54
f 97//54 98//54 100//55 99//55
f 99//55 100//55 102//56 101//56
f 101//56 102//56 104//57 103//57
f 103//57 104//57 106//58 105//58
f 105//58 106//58 108//59 107//59
f 107//59 108//59 110//60 109//60
f 109//60 110//60 112//61 111//61
f 111//61 112//61 114//62 113//62
f 113//62 114//62 116//63 115//63
f 115//63 116//63 118//64 117//64
f 117//64 118//64 120//65 119//65
f 119//65 120//65 122//66 121//66
f 121//66 122//66 124//67 123//67
f 123//67 124//67 126//68 125//68
f 127//69 128//69 2//5 1//5
f 125//68 126//68 128//69 127//69
f 129//70 130//70 132//71 131//71
f 131//71 132//71 134//72 133//72
f 133//72 134//72 136//73 135//73
f 135//73 136//73 138//74 137//74
f 137//74 138//74 140//75 139//75
f 139//75 140//75 142//76 141//76
f 141//76 142//76 144//77 143//77
f 143//77 144//77 146//78 145//78
f 145//78 146//78 148//79 147//79
f 147//79 148//79 150//80 149//80
f 149//80 150//80 152//81 151//81
f 151//81 152//81 154//82 153//82
f 153//82 154//82 156//83 155//83
f 155//83 156//83 158//84 157//84
f 157//84 158//84 160//85 159//85
f 159//85 160//85 162//86 161//86
f 161//86 162//86 164//87 163//87
f 163//87 164//87 166//88 165//88
f 165//88 166//88 168//89 167//89
f 167//89 168//89 170//90 169//90
f 169//90 170//90 172//91 171//91
f 171//91 172//91 174//92 173//92
f 173//92 174//92 176//93 175//93
f 175//93 176//93 178//94 177//94
f 177//94 178//94 180//95 179//95
f 179//95 180//95 182//96 181//96
f 181//96 182//96 184//97 183//97
f 183//97 184//97 186//98 185//98
f 185//98 186//98 188//99 187//99
f 187//99 188//99 190//100 189//100
f 189//100 190//100 192//101 191//101
f 191//101 192//101 194//102 193//102
f 193//102 194//102 196//103 195//103
f 195//103 196//103 198//104 197//104
f 197//104 198//104 200//105 199//105
f 199//105 200//105 202//106 201//106
f 201//106 202//106 204//107 203//107
f 203//107 204//107 206//108 205//108
f 205//108 206//108 208//109 207//109
f 207//109 208//109 210//110 209//110
f 209//110 210//110 212//111 211//111
f 211//111 212//111 214//112 213//112
f 213//112 214//112 216//113 215//113
f 215//113 216//113 218//114 217//115
f 217//115 218//114 220//116 219//116
f 219//116 220//116 222//117 221//117
f 221//117 222//117 224//118 223//118
f 223//118 224//118 226//119 225//119
f 225//119 226//119 228//120 227//120
f 227//120 228//120 230//121 229//121
f 229//121 230//121 232//122 231//122
f 231//122 232//122 234//123 233//123
f 233//123 234//123 236//124 235//124
f 235//124 236//124 238//125 237//125
f 237//125 238//125 240//126 239//126
f 239//126 240//126 242//127 241//127
f 241//127 242//127 244//128 243//128
f 243//128 244//128 246//129 245//129
f 245//129 246//129 248//130 247//130
f 247//130 248//130 250//131 249//131
f 249//131 250//131 252//132 251//132
f 251//132 252//132 254//133 253//133
f 255//134 256//134 130//70 129//70
f 253//133 254//133 256//134 255//134
