# Blender v2.74 (sub 0) OBJ File: 'Stuvio_3D_frames.blend'
# www.blender.org
o Cylinder.001
v -2.930006 -2.881542 1.420596
v 3.557726 -2.881541 1.420595
v -2.930006 -2.901145 1.421559
v 3.557726 -2.901144 1.421558
v -2.930006 -2.920560 1.424439
v 3.557726 -2.920559 1.424438
v -2.930006 -2.939599 1.429208
v 3.557726 -2.939597 1.429207
v -2.930006 -2.958078 1.435820
v 3.557726 -2.958077 1.435819
v -2.930006 -2.975821 1.444211
v 3.557726 -2.975820 1.444211
v -2.930006 -2.992656 1.454302
v 3.557726 -2.992655 1.454301
v -2.930006 -3.008420 1.465994
v 3.557726 -3.008419 1.465993
v -2.930006 -3.022963 1.479174
v 3.557726 -3.022962 1.479173
v -2.930006 -3.036144 1.493717
v 3.557726 -3.036143 1.493716
v -2.930006 -3.047836 1.509482
v 3.557726 -3.047835 1.509481
v -2.930006 -3.057926 1.526316
v 3.557726 -3.057925 1.526315
v -2.930006 -3.066318 1.544059
v 3.557726 -3.066316 1.544058
v -2.930006 -3.072930 1.562539
v 3.557726 -3.072928 1.562538
v -2.930006 -3.077699 1.581578
v 3.557726 -3.077698 1.581577
v -2.930006 -3.080579 1.600992
v 3.557726 -3.080578 1.600991
v -2.930006 -3.081542 1.620596
v 3.557726 -3.081540 1.620595
v -2.930006 -3.080579 1.640199
v 3.557726 -3.080578 1.640198
v -2.930006 -3.077699 1.659614
v 3.557726 -3.077698 1.659613
v -2.930006 -3.072930 1.678653
v 3.557726 -3.072928 1.678652
v -2.930006 -3.066318 1.697132
v 3.557726 -3.066316 1.697132
v -2.930006 -3.057926 1.714875
v 3.557726 -3.057925 1.714874
v -2.930006 -3.047836 1.731710
v 3.557726 -3.047834 1.731709
v -2.930006 -3.036144 1.747474
v 3.557726 -3.036143 1.747473
v -2.930006 -3.022963 1.762017
v 3.557726 -3.022962 1.762016
v -2.930006 -3.008420 1.775198
v 3.557726 -3.008419 1.775197
v -2.930006 -2.992656 1.786890
v 3.557726 -2.992655 1.786889
v -2.930006 -2.975821 1.796980
v 3.557726 -2.975820 1.796979
v -2.930006 -2.958078 1.805372
v 3.557726 -2.958077 1.805371
v -2.930006 -2.939599 1.811984
v 3.557726 -2.939597 1.811983
v -2.930006 -2.920560 1.816753
v 3.557726 -2.920558 1.816752
v -2.930006 -2.901145 1.819633
v 3.557726 -2.901144 1.819632
v -2.930006 -2.881542 1.820596
v 3.557726 -2.881541 1.820595
v -2.930006 -2.861938 1.819633
v 3.557726 -2.861937 1.819632
v -2.930006 -2.842524 1.816753
v 3.557726 -2.842522 1.816752
v -2.930006 -2.823485 1.811984
v 3.557726 -2.823483 1.811983
v -2.930006 -2.805005 1.805372
v 3.557726 -2.805004 1.805371
v -2.930006 -2.787262 1.796980
v 3.557726 -2.787261 1.796979
v -2.930006 -2.770428 1.786889
v 3.557726 -2.770426 1.786889
v -2.930006 -2.754663 1.775198
v 3.557726 -2.754662 1.775197
v -2.930006 -2.740120 1.762017
v 3.557726 -2.740119 1.762016
v -2.930006 -2.726940 1.747474
v 3.557726 -2.726938 1.747473
v -2.930006 -2.715248 1.731710
v 3.557726 -2.715246 1.731709
v -2.930006 -2.705158 1.714875
v 3.557726 -2.705156 1.714874
v -2.930006 -2.696766 1.697132
v 3.557726 -2.696765 1.697131
v -2.930006 -2.690154 1.678653
v 3.557726 -2.690153 1.678652
v -2.930006 -2.685385 1.659614
v 3.557726 -2.685384 1.659613
v -2.930006 -2.682505 1.640199
v 3.557726 -2.682503 1.640198
v -2.930006 -2.681542 1.620596
v 3.557726 -2.681541 1.620595
v -2.930006 -2.682505 1.600992
v 3.557726 -2.682503 1.600991
v -2.930006 -2.685385 1.581578
v 3.557726 -2.685384 1.581577
v -2.930006 -2.690154 1.562539
v 3.557726 -2.690153 1.562538
v -2.930006 -2.696766 1.544059
v 3.557726 -2.696764 1.544058
v -2.930006 -2.705157 1.526317
v 3.557726 -2.705156 1.526316
v -2.930006 -2.715248 1.509482
v 3.557726 -2.715246 1.509481
v -2.930006 -2.726939 1.493717
v 3.557726 -2.726938 1.493716
v -2.930006 -2.740120 1.479175
v 3.557726 -2.740119 1.479174
v -2.930006 -2.754663 1.465994
v 3.557726 -2.754662 1.465993
v -2.930006 -2.770427 1.454302
v 3.557726 -2.770426 1.454301
v -2.930006 -2.787262 1.444212
v 3.557726 -2.787261 1.444211
v -2.930006 -2.805005 1.435820
v 3.557726 -2.805003 1.435819
v -2.930006 -2.823484 1.429208
v 3.557726 -2.823483 1.429207
v -2.930006 -2.842523 1.424439
v 3.557726 -2.842522 1.424438
v -2.930006 -2.861938 1.421559
v 3.557726 -2.861937 1.421558
v -2.930006 4.608328 1.420596
v 3.557726 4.608329 1.420595
v -2.930006 4.588725 1.421559
v 3.557726 4.588726 1.421558
v -2.930006 4.569310 1.424439
v 3.557726 4.569311 1.424438
v -2.930006 4.550271 1.429208
v 3.557726 4.550272 1.429207
v -2.930006 4.531792 1.435820
v 3.557726 4.531793 1.435819
v -2.930006 4.514049 1.444211
v 3.557726 4.514050 1.444211
v -2.930006 4.497214 1.454302
v 3.557726 4.497215 1.454301
v -2.930006 4.481450 1.465994
v 3.557726 4.481451 1.465993
v -2.930006 4.466907 1.479174
v 3.557726 4.466908 1.479173
v -2.930006 4.453726 1.493717
v 3.557726 4.453727 1.493716
v -2.930006 4.442034 1.509482
v 3.557726 4.442036 1.509481
v -2.930006 4.431944 1.526316
v 3.557726 4.431945 1.526315
v -2.930006 4.423553 1.544059
v 3.557726 4.423553 1.544058
v -2.930006 4.416940 1.562539
v 3.557726 4.416942 1.562538
v -2.930006 4.412171 1.581578
v 3.557726 4.412172 1.581577
v -2.930006 4.409291 1.600992
v 3.557726 4.409292 1.600991
v -2.930006 4.408328 1.620596
v 3.557726 4.408329 1.620595
v -2.930006 4.409291 1.640199
v 3.557726 4.409292 1.640198
v -2.930006 4.412171 1.659614
v 3.557726 4.412172 1.659613
v -2.930006 4.416940 1.678653
v 3.557726 4.416942 1.678652
v -2.930006 4.423553 1.697132
v 3.557726 4.423553 1.697132
v -2.930006 4.431944 1.714875
v 3.557726 4.431945 1.714874
v -2.930006 4.442034 1.731710
v 3.557726 4.442036 1.731709
v -2.930006 4.453726 1.747474
v 3.557726 4.453727 1.747473
v -2.930006 4.466907 1.762017
v 3.557726 4.466908 1.762016
v -2.930006 4.481450 1.775198
v 3.557726 4.481451 1.775197
v -2.930006 4.497214 1.786890
v 3.557726 4.497215 1.786889
v -2.930006 4.514049 1.796980
v 3.557726 4.514050 1.796979
v -2.930006 4.531792 1.805372
v 3.557726 4.531793 1.805371
v -2.930006 4.550271 1.811984
v 3.557726 4.550272 1.811983
v -2.930006 4.569310 1.816753
v 3.557726 4.569311 1.816752
v -2.930006 4.588725 1.819633
v 3.557726 4.588726 1.819632
v -2.930006 4.608328 1.820596
v 3.557726 4.608330 1.820595
v -2.930006 4.627932 1.819633
v 3.557726 4.627933 1.819632
v -2.930006 4.647346 1.816753
v 3.557726 4.647347 1.816752
v -2.930006 4.666385 1.811984
v 3.557726 4.666387 1.811983
v -2.930006 4.684865 1.805372
v 3.557726 4.684866 1.805371
v -2.930006 4.702608 1.796980
v 3.557726 4.702609 1.796979
v -2.930006 4.719442 1.786889
v 3.557726 4.719443 1.786889
v -2.930006 4.735207 1.775198
v 3.557726 4.735209 1.775197
v -2.930006 4.749749 1.762017
v 3.557726 4.749751 1.762016
v -2.930006 4.762930 1.747474
v 3.557726 4.762932 1.747473
v -2.930006 4.774622 1.731710
v 3.557726 4.774623 1.731709
v -2.930006 4.784712 1.714875
v 3.557726 4.784714 1.714874
v -2.930006 4.793104 1.697132
v 3.557726 4.793105 1.697131
v -2.930006 4.799716 1.678653
v 3.557726 4.799717 1.678652
v -2.930006 4.804485 1.659614
v 3.557726 4.804486 1.659613
v -2.930006 4.807365 1.640199
v 3.557726 4.807366 1.640198
v -2.930006 4.808328 1.620596
v 3.557726 4.808330 1.620595
v -2.930006 4.807365 1.600992
v 3.557726 4.807366 1.600991
v -2.930006 4.804485 1.581578
v 3.557726 4.804486 1.581577
v -2.930006 4.799716 1.562539
v 3.557726 4.799717 1.562538
v -2.930006 4.793104 1.544059
v 3.557726 4.793105 1.544058
v -2.930006 4.784713 1.526317
v 3.557726 4.784714 1.526316
v -2.930006 4.774622 1.509482
v 3.557726 4.774623 1.509481
v -2.930006 4.762930 1.493717
v 3.557726 4.762932 1.493716
v -2.930006 4.749750 1.479175
v 3.557726 4.749751 1.479174
v -2.930006 4.735207 1.465994
v 3.557726 4.735209 1.465993
v -2.930006 4.719442 1.454302
v 3.557726 4.719444 1.454301
v -2.930006 4.702608 1.444212
v 3.557726 4.702609 1.444211
v -2.930006 4.684865 1.435820
v 3.557726 4.684866 1.435819
v -2.930006 4.666386 1.429208
v 3.557726 4.666387 1.429207
v -2.930006 4.647346 1.424439
v 3.557726 4.647348 1.424438
v -2.930006 4.627932 1.421559
v 3.557726 4.627934 1.421558
v 3.059473 -3.434454 1.420595
v 3.059473 5.181431 1.420595
v 3.079077 -3.434454 1.421558
v 3.079077 5.181431 1.421558
v 3.098491 -3.434454 1.424438
v 3.098491 5.181431 1.424438
v 3.117530 -3.434454 1.429207
v 3.117530 5.181431 1.429207
v 3.136010 -3.434454 1.435819
v 3.136010 5.181431 1.435819
v 3.153752 -3.434454 1.444211
v 3.153752 5.181431 1.444211
v 3.170587 -3.434454 1.454301
v 3.170587 5.181431 1.454301
v 3.186352 -3.434454 1.465993
v 3.186352 5.181431 1.465993
v 3.200894 -3.434454 1.479174
v 3.200894 5.181431 1.479174
v 3.214075 -3.434454 1.493717
v 3.214075 5.181431 1.493717
v 3.225767 -3.434454 1.509481
v 3.225767 5.181431 1.509481
v 3.235857 -3.434454 1.526316
v 3.235857 5.181431 1.526316
v 3.244249 -3.434454 1.544059
v 3.244249 5.181431 1.544059
v 3.250861 -3.434454 1.562538
v 3.250861 5.181431 1.562538
v 3.255630 -3.434454 1.581577
v 3.255630 5.181431 1.581577
v 3.258510 -3.434454 1.600992
v 3.258510 5.181431 1.600992
v 3.259473 -3.434454 1.620595
v 3.259473 5.181431 1.620595
v 3.258510 -3.434454 1.640199
v 3.258510 5.181431 1.640199
v 3.255630 -3.434454 1.659613
v 3.255630 5.181431 1.659613
v 3.250861 -3.434454 1.678652
v 3.250861 5.181431 1.678652
v 3.244249 -3.434454 1.697132
v 3.244249 5.181431 1.697132
v 3.235857 -3.434454 1.714875
v 3.235857 5.181431 1.714875
v 3.225767 -3.434454 1.731709
v 3.225767 5.181431 1.731709
v 3.214075 -3.434454 1.747474
v 3.214075 5.181431 1.747474
v 3.200894 -3.434454 1.762017
v 3.200894 5.181431 1.762017
v 3.186352 -3.434454 1.775197
v 3.186352 5.181431 1.775197
v 3.170587 -3.434454 1.786889
v 3.170587 5.181431 1.786889
v 3.153752 -3.434454 1.796980
v 3.153752 5.181431 1.796980
v 3.136010 -3.434454 1.805371
v 3.136010 5.181431 1.805371
v 3.117530 -3.434454 1.811983
v 3.117530 5.181431 1.811983
v 3.098491 -3.434454 1.816752
v 3.098491 5.181431 1.816752
v 3.079076 -3.434454 1.819632
v 3.079076 5.181431 1.819632
v 3.059473 -3.434454 1.820595
v 3.059473 5.181431 1.820595
v 3.039870 -3.434454 1.819632
v 3.039870 5.181431 1.819632
v 3.020455 -3.434454 1.816752
v 3.020455 5.181431 1.816752
v 3.001416 -3.434454 1.811983
v 3.001416 5.181431 1.811983
v 2.982936 -3.434454 1.805371
v 2.982936 5.181431 1.805371
v 2.965194 -3.434454 1.796979
v 2.965194 5.181431 1.796979
v 2.948359 -3.434454 1.786889
v 2.948359 5.181431 1.786889
v 2.932594 -3.434454 1.775197
v 2.932594 5.181431 1.775197
v 2.918051 -3.434454 1.762016
v 2.918051 5.181431 1.762016
v 2.904871 -3.434454 1.747474
v 2.904871 5.181431 1.747474
v 2.893179 -3.434454 1.731709
v 2.893179 5.181431 1.731709
v 2.883089 -3.434454 1.714875
v 2.883089 5.181431 1.714875
v 2.874697 -3.434454 1.697132
v 2.874697 5.181431 1.697132
v 2.868085 -3.434454 1.678652
v 2.868085 5.181431 1.678652
v 2.863316 -3.434454 1.659613
v 2.863316 5.181431 1.659613
v 2.860436 -3.434454 1.640199
v 2.860436 5.181431 1.640199
v 2.859473 -3.434454 1.620595
v 2.859473 5.181431 1.620595
v 2.860436 -3.434454 1.600992
v 2.860436 5.181431 1.600992
v 2.863316 -3.434454 1.581577
v 2.863316 5.181431 1.581577
v 2.868085 -3.434454 1.562539
v 2.868085 5.181431 1.562539
v 2.874697 -3.434454 1.544059
v 2.874697 5.181431 1.544059
v 2.883089 -3.434454 1.526316
v 2.883089 5.181431 1.526316
v 2.893179 -3.434454 1.509481
v 2.893179 5.181431 1.509481
v 2.904871 -3.434454 1.493717
v 2.904871 5.181431 1.493717
v 2.918051 -3.434454 1.479174
v 2.918051 5.181431 1.479174
v 2.932594 -3.434454 1.465993
v 2.932594 5.181431 1.465993
v 2.948359 -3.434454 1.454302
v 2.948359 5.181431 1.454302
v 2.965193 -3.434454 1.444211
v 2.965193 5.181431 1.444211
v 2.982936 -3.434454 1.435820
v 2.982936 5.181431 1.435820
v 3.001415 -3.434454 1.429207
v 3.001415 5.181431 1.429207
v 3.020454 -3.434454 1.424438
v 3.020454 5.181431 1.424438
v 3.039869 -3.434454 1.421558
v 3.039869 5.181431 1.421558
v -2.391376 -3.434454 1.420595
v -2.391376 5.181431 1.420595
v -2.371772 -3.434454 1.421558
v -2.371772 5.181431 1.421558
v -2.352357 -3.434454 1.424438
v -2.352357 5.181431 1.424438
v -2.333319 -3.434454 1.429207
v -2.333319 5.181431 1.429207
v -2.314839 -3.434454 1.435819
v -2.314839 5.181431 1.435819
v -2.297096 -3.434454 1.444211
v -2.297096 5.181431 1.444211
v -2.280262 -3.434454 1.454301
v -2.280262 5.181431 1.454301
v -2.264497 -3.434454 1.465993
v -2.264497 5.181431 1.465993
v -2.249954 -3.434454 1.479174
v -2.249954 5.181431 1.479174
v -2.236774 -3.434454 1.493717
v -2.236774 5.181431 1.493717
v -2.225082 -3.434454 1.509481
v -2.225082 5.181431 1.509481
v -2.214992 -3.434454 1.526316
v -2.214992 5.181431 1.526316
v -2.206600 -3.434454 1.544059
v -2.206600 5.181431 1.544059
v -2.199988 -3.434454 1.562538
v -2.199988 5.181431 1.562538
v -2.195219 -3.434454 1.581577
v -2.195219 5.181431 1.581577
v -2.192339 -3.434454 1.600992
v -2.192339 5.181431 1.600992
v -2.191376 -3.434454 1.620595
v -2.191376 5.181431 1.620595
v -2.192339 -3.434454 1.640199
v -2.192339 5.181431 1.640199
v -2.195219 -3.434454 1.659613
v -2.195219 5.181431 1.659613
v -2.199988 -3.434454 1.678652
v -2.199988 5.181431 1.678652
v -2.206600 -3.434454 1.697132
v -2.206600 5.181431 1.697132
v -2.214992 -3.434454 1.714875
v -2.214992 5.181431 1.714875
v -2.225082 -3.434454 1.731709
v -2.225082 5.181431 1.731709
v -2.236774 -3.434454 1.747474
v -2.236774 5.181431 1.747474
v -2.249955 -3.434454 1.762017
v -2.249955 5.181431 1.762017
v -2.264497 -3.434454 1.775197
v -2.264497 5.181431 1.775197
v -2.280262 -3.434454 1.786889
v -2.280262 5.181431 1.786889
v -2.297097 -3.434454 1.796980
v -2.297097 5.181431 1.796980
v -2.314839 -3.434454 1.805371
v -2.314839 5.181431 1.805371
v -2.333319 -3.434454 1.811983
v -2.333319 5.181431 1.811983
v -2.352358 -3.434454 1.816752
v -2.352358 5.181431 1.816752
v -2.371772 -3.434454 1.819632
v -2.371772 5.181431 1.819632
v -2.391376 -3.434454 1.820595
v -2.391376 5.181431 1.820595
v -2.410980 -3.434454 1.819632
v -2.410980 5.181431 1.819632
v -2.430394 -3.434454 1.816752
v -2.430394 5.181431 1.816752
v -2.449433 -3.434454 1.811983
v -2.449433 5.181431 1.811983
v -2.467913 -3.434454 1.805371
v -2.467913 5.181431 1.805371
v -2.485655 -3.434454 1.796979
v -2.485655 5.181431 1.796979
v -2.502490 -3.434454 1.786889
v -2.502490 5.181431 1.786889
v -2.518255 -3.434454 1.775197
v -2.518255 5.181431 1.775197
v -2.532797 -3.434454 1.762016
v -2.532797 5.181431 1.762016
v -2.545978 -3.434454 1.747474
v -2.545978 5.181431 1.747474
v -2.557670 -3.434454 1.731709
v -2.557670 5.181431 1.731709
v -2.567760 -3.434454 1.714875
v -2.567760 5.181431 1.714875
v -2.576152 -3.434454 1.697132
v -2.576152 5.181431 1.697132
v -2.582764 -3.434454 1.678652
v -2.582764 5.181431 1.678652
v -2.587533 -3.434454 1.659613
v -2.587533 5.181431 1.659613
v -2.590413 -3.434454 1.640199
v -2.590413 5.181431 1.640199
v -2.591376 -3.434454 1.620595
v -2.591376 5.181431 1.620595
v -2.590413 -3.434454 1.600992
v -2.590413 5.181431 1.600992
v -2.587533 -3.434454 1.581577
v -2.587533 5.181431 1.581577
v -2.582764 -3.434454 1.562539
v -2.582764 5.181431 1.562539
v -2.576152 -3.434454 1.544059
v -2.576152 5.181431 1.544059
v -2.567760 -3.434454 1.526316
v -2.567760 5.181431 1.526316
v -2.557670 -3.434454 1.509481
v -2.557670 5.181431 1.509481
v -2.545978 -3.434454 1.493717
v -2.545978 5.181431 1.493717
v -2.532797 -3.434454 1.479174
v -2.532797 5.181431 1.479174
v -2.518255 -3.434454 1.465993
v -2.518255 5.181431 1.465993
v -2.502491 -3.434454 1.454302
v -2.502491 5.181431 1.454302
v -2.485656 -3.434454 1.444211
v -2.485656 5.181431 1.444211
v -2.467913 -3.434454 1.435820
v -2.467913 5.181431 1.435820
v -2.449433 -3.434454 1.429207
v -2.449433 5.181431 1.429207
v -2.430395 -3.434454 1.424438
v -2.430395 5.181431 1.424438
v -2.410980 -3.434454 1.421558
v -2.410980 5.181431 1.421558
vn 1.000000 0.000000 0.000000
vn -1.000000 -0.000000 0.000000
vn 0.000000 1.000000 -0.000000
vn 0.000000 -1.000000 0.000000
vn -0.000000 0.000000 -1.000000
vn -0.000000 -0.098000 -0.995200
vn -0.000000 -0.195100 -0.980800
vn -0.000000 -0.290300 -0.956900
vn -0.000000 -0.382700 -0.923900
vn -0.000000 -0.471400 -0.881900
vn -0.000000 -0.555600 -0.831500
vn 0.000000 -0.634400 -0.773000
vn 0.000000 -0.707100 -0.707100
vn 0.000000 -0.773000 -0.634400
vn 0.000000 -0.831500 -0.555600
vn 0.000000 -0.881900 -0.471400
vn 0.000000 -0.923900 -0.382700
vn 0.000000 -0.956900 -0.290300
vn 0.000000 -0.980800 -0.195100
vn 0.000000 -0.995200 -0.098000
vn 0.000000 -0.995200 0.098000
vn 0.000000 -0.980800 0.195100
vn 0.000000 -0.956900 0.290300
vn 0.000000 -0.923900 0.382700
vn 0.000000 -0.881900 0.471400
vn 0.000000 -0.831500 0.555600
vn 0.000000 -0.773000 0.634400
vn 0.000000 -0.707100 0.707100
vn 0.000000 -0.634400 0.773000
vn 0.000000 -0.555600 0.831500
vn 0.000000 -0.471400 0.881900
vn 0.000000 -0.382700 0.923900
vn 0.000000 -0.290300 0.956900
vn 0.000000 -0.195100 0.980800
vn 0.000000 -0.098000 0.995200
vn 0.000000 0.000000 1.000000
vn 0.000000 0.098000 0.995200
vn 0.000000 0.195100 0.980800
vn 0.000000 0.290300 0.956900
vn 0.000000 0.382700 0.923900
vn 0.000000 0.471400 0.881900
vn 0.000000 0.555600 0.831500
vn -0.000000 0.634400 0.773000
vn -0.000000 0.707100 0.707100
vn -0.000000 0.773000 0.634400
vn -0.000000 0.831500 0.555600
vn -0.000000 0.881900 0.471400
vn -0.000000 0.923900 0.382700
vn -0.000000 0.956900 0.290300
vn -0.000000 0.980800 0.195100
vn -0.000000 0.995200 0.098000
vn -0.000000 0.995200 -0.098000
vn -0.000000 0.980800 -0.195100
vn -0.000000 0.956900 -0.290300
vn -0.000000 0.923900 -0.382700
vn -0.000000 0.881900 -0.471400
vn -0.000000 0.831500 -0.555600
vn -0.000000 0.773000 -0.634400
vn -0.000000 0.707100 -0.707100
vn -0.000000 0.634400 -0.773000
vn -0.000000 0.555600 -0.831500
vn -0.000000 0.471400 -0.881900
vn -0.000000 0.382700 -0.923900
vn -0.000000 0.290300 -0.956900
vn -0.000000 0.195100 -0.980800
vn -0.000000 0.098000 -0.995200
vn 0.098000 0.000000 -0.995200
vn 0.195100 0.000000 -0.980800
vn 0.290300 0.000000 -0.956900
vn 0.382700 0.000000 -0.923900
vn 0.471400 0.000000 -0.881900
vn 0.555600 0.000000 -0.831500
vn 0.634400 0.000000 -0.773000
vn 0.707100 0.000000 -0.707100
vn 0.773000 0.000000 -0.634400
vn 0.831500 0.000000 -0.555600
vn 0.881900 0.000000 -0.471400
vn 0.923900 0.000000 -0.382700
vn 0.956900 0.000000 -0.290300
vn 0.980800 0.000000 -0.195100
vn 0.995200 0.000000 -0.098000
vn 0.995200 0.000000 0.098000
vn 0.980800 0.000000 0.195100
vn 0.956900 0.000000 0.290300
vn 0.923900 0.000000 0.382700
vn 0.881900 0.000000 0.471400
vn 0.831500 0.000000 0.555600
vn 0.773000 0.000000 0.634400
vn 0.707100 0.000000 0.707100
vn 0.634400 0.000000 0.773000
vn 0.555600 0.000000 0.831500
vn 0.471400 0.000000 0.881900
vn 0.382700 0.000000 0.923900
vn 0.290300 0.000000 0.956900
vn 0.195100 0.000000 0.980800
vn 0.098000 0.000000 0.995200
vn -0.098000 0.000000 0.995200
vn -0.195100 0.000000 0.980800
vn -0.290300 0.000000 0.956900
vn -0.382700 0.000000 0.923900
vn -0.471400 0.000000 0.881900
vn -0.555600 0.000000 0.831500
vn -0.634400 0.000000 0.773000
vn -0.707100 0.000000 0.707100
vn -0.773000 0.000000 0.634400
vn -0.831500 0.000000 0.555600
vn -0.881900 0.000000 0.471400
vn -0.923900 0.000000 0.382700
vn -0.956900 0.000000 0.290300
vn -0.980800 0.000000 0.195100
vn -0.995200 0.000000 0.098000
vn -0.995200 0.000000 -0.098000
vn -0.980800 0.000000 -0.195100
vn -0.956900 0.000000 -0.290300
vn -0.923900 0.000000 -0.382700
vn -0.881900 0.000000 -0.471400
vn -0.831500 0.000000 -0.555600
vn -0.773000 0.000000 -0.634400
vn -0.707100 0.000000 -0.707100
vn -0.634400 0.000000 -0.773000
vn -0.555600 0.000000 -0.831500
vn -0.471400 0.000000 -0.881900
vn -0.382700 0.000000 -0.923900
vn -0.290300 0.000000 -0.956900
vn -0.195100 0.000000 -0.980800
vn -0.098000 0.000000 -0.995200
s off
f 4//1 2//1 128//1 126//1 124//1 122//1 120//1 118//1 116//1 114//1 112//1 110//1 108//1 106//1 104//1 102//1 100//1 98//1 96//1 94//1 92//1 90//1 88//1 86//1 84//1 82//1 80//1 78//1 76//1 74//1 72//1 70//1 68//1 66//1 64//1 62//1 60//1 58//1 56//1 54//1 52//1 50//1 48//1 46//1 44//1 42//1 40//1 38//1 36//1 34//1 32//1 30//1 28//1 26//1 24//1 22//1 20//1 18//1 16//1 14//1 12//1 10//1 8//1 6//1
f 1//2 3//2 5//2 7//2 9//2 11//2 13//2 15//2 17//2 19//2 21//2 23//2 25//2 27//2 29//2 31//2 33//2 35//2 37//2 39//2 41//2 43//2 45//2 47//2 49//2 51//2 53//2 55//2 57//2 59//2 61//2 63//2 65//2 67//2 69//2 71//2 73//2 75//2 77//2 79//2 81//2 83//2 85//2 87//2 89//2 91//2 93//2 95//2 97//2 99//2 101//2 103//2 105//2 107//2 109//2 111//2 113//2 115//2 117//2 119//2 121//2 123//2 125//2 127//2
f 132//1 130//1 256//1 254//1 252//1 250//1 248//1 246//1 244//1 242//1 240//1 238//1 236//1 234//1 232//1 230//1 228//1 226//1 224//1 222//1 220//1 218//1 216//1 214//1 212//1 210//1 208//1 206//1 204//1 202//1 200//1 198//1 196//1 194//1 192//1 190//1 188//1 186//1 184//1 182//1 180//1 178//1 176//1 174//1 172//1 170//1 168//1 166//1 164//1 162//1 160//1 158//1 156//1 154//1 152//1 150//1 148//1 146//1 144//1 142//1 140//1 138//1 136//1 134//1
f 129//2 131//2 133//2 135//2 137//2 139//2 141//2 143//2 145//2 147//2 149//2 151//2 153//2 155//2 157//2 159//2 161//2 163//2 165//2 167//2 169//2 171//2 173//2 175//2 177//2 179//2 181//2 183//2 185//2 187//2 189//2 191//2 193//2 195//2 197//2 199//2 201//2 203//2 205//2 207//2 209//2 211//2 213//2 215//2 217//2 219//2 221//2 223//2 225//2 227//2 229//2 231//2 233//2 235//2 237//2 239//2 241//2 243//2 245//2 247//2 249//2 251//2 253//2 255//2
f 260//3 258//3 384//3 382//3 380//3 378//3 376//3 374//3 372//3 370//3 368//3 366//3 364//3 362//3 360//3 358//3 356//3 354//3 352//3 350//3 348//3 346//3 344//3 342//3 340//3 338//3 336//3 334//3 332//3 330//3 328//3 326//3 324//3 322//3 320//3 318//3 316//3 314//3 312//3 310//3 308//3 306//3 304//3 302//3 300//3 298//3 296//3 294//3 292//3 290//3 288//3 286//3 284//3 282//3 280//3 278//3 276//3 274//3 272//3 270//3 268//3 266//3 264//3 262//3
f 257//4 259//4 261//4 263//4 265//4 267//4 269//4 271//4 273//4 275//4 277//4 279//4 281//4 283//4 285//4 287//4 289//4 291//4 293//4 295//4 297//4 299//4 301//4 303//4 305//4 307//4 309//4 311//4 313//4 315//4 317//4 319//4 321//4 323//4 325//4 327//4 329//4 331//4 333//4 335//4 337//4 339//4 341//4 343//4 345//4 347//4 349//4 351//4 353//4 355//4 357//4 359//4 361//4 363//4 365//4 367//4 369//4 371//4 373//4 375//4 377//4 379//4 381//4 383//4
f 388//3 386//3 512//3 510//3 508//3 506//3 504//3 502//3 500//3 498//3 496//3 494//3 492//3 490//3 488//3 486//3 484//3 482//3 480//3 478//3 476//3 474//3 472//3 470//3 468//3 466//3 464//3 462//3 460//3 458//3 456//3 454//3 452//3 450//3 448//3 446//3 444//3 442//3 440//3 438//3 436//3 434//3 432//3 430//3 428//3 426//3 424//3 422//3 420//3 418//3 416//3 414//3 412//3 410//3 408//3 406//3 404//3 402//3 400//3 398//3 396//3 394//3 392//3 390//3
f 385//4 387//4 389//4 391//4 393//4 395//4 397//4 399//4 401//4 403//4 405//4 407//4 409//4 411//4 413//4 415//4 417//4 419//4 421//4 423//4 425//4 427//4 429//4 431//4 433//4 435//4 437//4 439//4 441//4 443//4 445//4 447//4 449//4 451//4 453//4 455//4 457//4 459//4 461//4 463//4 465//4 467//4 469//4 471//4 473//4 475//4 477//4 479//4 481//4 483//4 485//4 487//4 489//4 491//4 493//4 495//4 497//4 499//4 501//4 503//4 505//4 507//4 509//4 511//4
s 1
f 1//5 2//5 4//6 3//6
f 3//6 4//6 6//7 5//7
f 5//7 6//7 8//8 7//8
f 7//8 8//8 10//9 9//9
f 9//9 10//9 12//10 11//10
f 11//10 12//10 14//11 13//11
f 13//11 14//11 16//12 15//12
f 15//12 16//12 18//13 17//13
f 17//13 18//13 20//14 19//14
f 19//14 20//14 22//15 21//15
f 21//15 22//15 24//16 23//16
f 23//16 24//16 26//17 25//17
f 25//17 26//17 28//18 27//18
f 27//18 28//18 30//19 29//19
f 29//19 30//19 32//20 31//20
f 31//20 32//20 34//4 33//4
f 33//4 34//4 36//21 35//21
f 35//21 36//21 38//22 37//22
f 37//22 38//22 40//23 39//23
f 39//23 40//23 42//24 41//24
f 41//24 42//24 44//25 43//25
f 43//25 44//25 46//26 45//26
f 45//26 46//26 48//27 47//27
f 47//27 48//27 50//28 49//28
f 49//28 50//28 52//29 51//29
f 51//29 52//29 54//30 53//30
f 53//30 54//30 56//31 55//31
f 55//31 56//31 58//32 57//32
f 57//32 58//32 60//33 59//33
f 59//33 60//33 62//34 61//34
f 61//34 62//34 64//35 63//35
f 63//35 64//35 66//36 65//36
f 65//36 66//36 68//37 67//37
f 67//37 68//37 70//38 69//38
f 69//38 70//38 72//39 71//39
f 71//39 72//39 74//40 73//40
f 73//40 74//40 76//41 75//41
f 75//41 76//41 78//42 77//42
f 77//42 78//42 80//43 79//43
f 79//43 80//43 82//44 81//44
f 81//44 82//44 84//45 83//45
f 83//45 84//45 86//46 85//46
f 85//46 86//46 88//47 87//47
f 87//47 88//47 90//48 89//48
f 89//48 90//48 92//49 91//49
f 91//49 92//49 94//50 93//50
f 93//50 94//50 96//51 95//51
f 95//51 96//51 98//3 97//3
f 97//3 98//3 100//52 99//52
f 99//52 100//52 102//53 101//53
f 101//53 102//53 104//54 103//54
f 103//54 104//54 106//55 105//55
f 105//55 106//55 108//56 107//56
f 107//56 108//56 110//57 109//57
f 109//57 110//57 112//58 111//58
f 111//58 112//58 114//59 113//59
f 113//59 114//59 116//60 115//60
f 115//60 116//60 118//61 117//61
f 117//61 118//61 120//62 119//62
f 119//62 120//62 122//63 121//63
f 121//63 122//63 124//64 123//64
f 123//64 124//64 126//65 125//65
f 127//66 128//66 2//5 1//5
f 125//65 126//65 128//66 127//66
f 129//5 130//5 132//6 131//6
f 131//6 132//6 134//7 133//7
f 133//7 134//7 136//8 135//8
f 135//8 136//8 138//9 137//9
f 137//9 138//9 140//10 139//10
f 139//10 140//10 142//11 141//11
f 141//11 142//11 144//12 143//12
f 143//12 144//12 146//13 145//13
f 145//13 146//13 148//14 147//14
f 147//14 148//14 150//15 149//15
f 149//15 150//15 152//16 151//16
f 151//16 152//16 154//17 153//17
f 153//17 154//17 156//18 155//18
f 155//18 156//18 158//19 157//19
f 157//19 158//19 160//20 159//20
f 159//20 160//20 162//4 161//4
f 161//4 162//4 164//21 163//21
f 163//21 164//21 166//22 165//22
f 165//22 166//22 168//23 167//23
f 167//23 168//23 170//24 169//24
f 169//24 170//24 172//25 171//25
f 171//25 172//25 174//26 173//26
f 173//26 174//26 176//27 175//27
f 175//27 176//27 178//28 177//28
f 177//28 178//28 180//29 179//29
f 179//29 180//29 182//30 181//30
f 181//30 182//30 184//31 183//31
f 183//31 184//31 186//32 185//32
f 185//32 186//32 188//33 187//33
f 187//33 188//33 190//34 189//34
f 189//34 190//34 192//35 191//35
f 191//35 192//35 194//36 193//36
f 193//36 194//36 196//37 195//37
f 195//37 196//37 198//38 197//38
f 197//38 198//38 200//39 199//39
f 199//39 200//39 202//40 201//40
f 201//40 202//40 204//41 203//41
f 203//41 204//41 206//42 205//42
f 205//42 206//42 208//43 207//43
f 207//43 208//43 210//44 209//44
f 209//44 210//44 212//45 211//45
f 211//45 212//45 214//46 213//46
f 213//46 214//46 216//47 215//47
f 215//47 216//47 218//48 217//48
f 217//48 218//48 220//49 219//49
f 219//49 220//49 222//50 221//50
f 221//50 222//50 224//51 223//51
f 223//51 224//51 226//3 225//3
f 225//3 226//3 228//52 227//52
f 227//52 228//52 230//53 229//53
f 229//53 230//53 232//54 231//54
f 231//54 232//54 234//55 233//55
f 233//55 234//55 236//56 235//56
f 235//56 236//56 238//57 237//57
f 237//57 238//57 240//58 239//58
f 239//58 240//58 242//59 241//59
f 241//59 242//59 244//60 243//60
f 243//60 244//60 246//61 245//61
f 245//61 246//61 248//62 247//62
f 247//62 248//62 250//63 249//63
f 249//63 250//63 252//64 251//64
f 251//64 252//64 254//65 253//65
f 255//66 256//66 130//5 129//5
f 253//65 254//65 256//66 255//66
f 257//5 258//5 260//67 259//67
f 259//67 260//67 262//68 261//68
f 261//68 262//68 264//69 263//69
f 263//69 264//69 266//70 265//70
f 265//70 266//70 268//71 267//71
f 267//71 268//71 270//72 269//72
f 269//72 270//72 272//73 271//73
f 271//73 272//73 274//74 273//74
f 273//74 274//74 276//75 275//75
f 275//75 276//75 278//76 277//76
f 277//76 278//76 280//77 279//77
f 279//77 280//77 282//78 281//78
f 281//78 282//78 284//79 283//79
f 283//79 284//79 286//80 285//80
f 285//80 286//80 288//81 287//81
f 287//81 288//81 290//1 289//1
f 289//1 290//1 292//82 291//82
f 291//82 292//82 294//83 293//83
f 293//83 294//83 296//84 295//84
f 295//84 296//84 298//85 297//85
f 297//85 298//85 300//86 299//86
f 299//86 300//86 302//87 301//87
f 301//87 302//87 304//88 303//88
f 303//88 304//88 306//89 305//89
f 305//89 306//89 308//90 307//90
f 307//90 308//90 310//91 309//91
f 309//91 310//91 312//92 311//92
f 311//92 312//92 314//93 313//93
f 313//93 314//93 316//94 315//94
f 315//94 316//94 318//95 317//95
f 317//95 318//95 320//96 319//96
f 319//96 320//96 322//36 321//36
f 321//36 322//36 324//97 323//97
f 323//97 324//97 326//98 325//98
f 325//98 326//98 328//99 327//99
f 327//99 328//99 330//100 329//100
f 329//100 330//100 332//101 331//101
f 331//101 332//101 334//102 333//102
f 333//102 334//102 336//103 335//103
f 335//103 336//103 338//104 337//104
f 337//104 338//104 340//105 339//105
f 339//105 340//105 342//106 341//106
f 341//106 342//106 344//107 343//107
f 343//107 344//107 346//108 345//108
f 345//108 346//108 348//109 347//109
f 347//109 348//109 350//110 349//110
f 349//110 350//110 352//111 351//111
f 351//111 352//111 354//2 353//2
f 353//2 354//2 356//112 355//112
f 355//112 356//112 358//113 357//113
f 357//113 358//113 360//114 359//114
f 359//114 360//114 362//115 361//115
f 361//115 362//115 364//116 363//116
f 363//116 364//116 366//117 365//117
f 365//117 366//117 368//118 367//118
f 367//118 368//118 370//119 369//119
f 369//119 370//119 372//120 371//120
f 371//120 372//120 374//121 373//121
f 373//121 374//121 376//122 375//122
f 375//122 376//122 378//123 377//123
f 377//123 378//123 380//124 379//124
f 379//124 380//124 382//125 381//125
f 383//126 384//126 258//5 257//5
f 381//125 382//125 384//126 383//126
f 385//5 386//5 388//67 387//67
f 387//67 388//67 390//68 389//68
f 389//68 390//68 392//69 391//69
f 391//69 392//69 394//70 393//70
f 393//70 394//70 396//71 395//71
f 395//71 396//71 398//72 397//72
f 397//72 398//72 400//73 399//73
f 399//73 400//73 402//74 401//74
f 401//74 402//74 404//75 403//75
f 403//75 404//75 406//76 405//76
f 405//76 406//76 408//77 407//77
f 407//77 408//77 410//78 409//78
f 409//78 410//78 412//79 411//79
f 411//79 412//79 414//80 413//80
f 413//80 414//80 416//81 415//81
f 415//81 416//81 418//1 417//1
f 417//1 418//1 420//82 419//82
f 419//82 420//82 422//83 421//83
f 421//83 422//83 424//84 423//84
f 423//84 424//84 426//85 425//85
f 425//85 426//85 428//86 427//86
f 427//86 428//86 430//87 429//87
f 429//87 430//87 432//88 431//88
f 431//88 432//88 434//89 433//89
f 433//89 434//89 436//90 435//90
f 435//90 436//90 438//91 437//91
f 437//91 438//91 440//92 439//92
f 439//92 440//92 442//93 441//93
f 441//93 442//93 444//94 443//94
f 443//94 444//94 446//95 445//95
f 445//95 446//95 448//96 447//96
f 447//96 448//96 450//36 449//36
f 449//36 450//36 452//97 451//97
f 451//97 452//97 454//98 453//98
f 453//98 454//98 456//99 455//99
f 455//99 456//99 458//100 457//100
f 457//100 458//100 460//101 459//101
f 459//101 460//101 462//102 461//102
f 461//102 462//102 464//103 463//103
f 463//103 464//103 466//104 465//104
f 465//104 466//104 468//105 467//105
f 467//105 468//105 470//106 469//106
f 469//106 470//106 472//107 471//107
f 471//107 472//107 474//108 473//108
f 473//108 474//108 476//109 475//109
f 475//109 476//109 478//110 477//110
f 477//110 478//110 480//111 479//111
f 479//111 480//111 482//2 481//2
f 481//2 482//2 484//112 483//112
f 483//112 484//112 486//113 485//113
f 485//113 486//113 488//114 487//114
f 487//114 488//114 490//115 489//115
f 489//115 490//115 492//116 491//116
f 491//116 492//116 494//117 493//117
f 493//117 494//117 496//118 495//118
f 495//118 496//118 498//119 497//119
f 497//119 498//119 500//120 499//120
f 499//120 500//120 502//121 501//121
f 501//121 502//121 504//122 503//122
f 503//122 504//122 506//123 505//123
f 505//123 506//123 508//124 507//124
f 507//124 508//124 510//125 509//125
f 511//126 512//126 386//5 385//5
f 509//125 510//125 512//126 511//126
