# Blender v2.74 (sub 0) OBJ File: 'Stuvio_3D_objs.blend'
# www.blender.org
o Cube.001_Cube.002
v 2.460745 -2.542583 0.841843
v 2.460745 2.608700 0.841843
v 2.460745 -2.542583 0.641843
v 2.460745 2.608700 0.641843
v 2.660745 -2.542583 0.841843
v 2.660745 2.608700 0.841843
v 2.660745 -2.542583 0.641843
v 2.660745 2.608700 0.641843
v 2.310745 -1.684036 0.991843
v 2.460745 -0.825489 0.841843
v 2.310745 0.033058 0.991843
v 2.460745 0.891605 0.841843
v 2.310745 1.750153 0.991843
v 2.310745 1.750153 0.491843
v 2.460745 0.891605 0.641843
v 2.310745 0.033058 0.491843
v 2.460745 -0.825489 0.641843
v 2.310745 -1.684036 0.491843
v 2.810745 1.750153 0.491843
v 2.660745 0.891605 0.641843
v 2.810745 0.033058 0.491843
v 2.660745 -0.825489 0.641843
v 2.810745 -1.684036 0.491843
v 2.810745 1.750153 0.991843
v 2.660745 0.891605 0.841843
v 2.810745 0.033058 0.991843
v 2.660745 -0.825489 0.841843
v 2.810745 -1.684036 0.991843
vn -0.985100 -0.172100 0.000000
vn 0.000000 -0.172100 -0.985100
vn 0.985100 -0.172100 0.000000
vn 0.000000 -0.172100 0.985100
vn 0.000000 -1.000000 0.000000
vn 0.000000 1.000000 0.000000
vn -0.000000 0.172100 0.985100
vn 0.985100 0.172100 0.000000
vn 0.000000 0.172100 -0.985100
vn -0.985100 0.172100 -0.000000
s off
f 9//1 18//1 3//1 1//1
f 18//2 23//2 7//2 3//2
f 23//3 28//3 5//3 7//3
f 28//4 9//4 1//4 5//4
f 1//5 3//5 7//5 5//5
f 6//6 8//6 4//6 2//6
f 6//7 2//7 13//7 24//7
f 24//4 13//4 12//4 25//4
f 25//7 12//7 11//7 26//7
f 26//4 11//4 10//4 27//4
f 27//7 10//7 9//7 28//7
f 8//8 6//8 24//8 19//8
f 19//3 24//3 25//3 20//3
f 20//8 25//8 26//8 21//8
f 21//3 26//3 27//3 22//3
f 22//8 27//8 28//8 23//8
f 4//9 8//9 19//9 14//9
f 14//2 19//2 20//2 15//2
f 15//9 20//9 21//9 16//9
f 16//2 21//2 22//2 17//2
f 17//9 22//9 23//9 18//9
f 2//10 4//10 14//10 13//10
f 13//1 14//1 15//1 12//1
f 12//10 15//10 16//10 11//10
f 11//1 16//1 17//1 10//1
f 10//10 17//10 18//10 9//10
