# Blender v2.74 (sub 0) OBJ File: 'Stuvio_3D_objs.blend'
# www.blender.org
o Cube_Cube.001
v 0.720735 -2.530005 -1.097926
v 0.720735 2.548375 -1.097926
v 0.720735 -2.530005 -1.597926
v 0.720735 2.548375 -1.597926
v 1.220735 -2.530005 -1.097926
v 1.220735 2.548375 -1.097926
v 1.220735 -2.530005 -1.597926
v 1.220735 2.548375 -1.597926
v 0.820735 -2.106807 -1.197926
v 0.720735 -1.683608 -1.097926
v 0.820735 -1.260410 -1.197926
v 0.720735 -0.837212 -1.097926
v 0.820735 -0.414013 -1.197926
v 0.720735 0.009185 -1.097926
v 0.820735 0.432383 -1.197926
v 0.720735 0.855582 -1.097926
v 0.820735 1.278780 -1.197926
v 0.720735 1.701978 -1.097926
v 0.820735 2.125177 -1.197926
v 0.820735 2.125176 -1.497926
v 0.720735 1.701978 -1.597926
v 0.820735 1.278780 -1.497926
v 0.720735 0.855581 -1.597926
v 0.820735 0.432383 -1.497926
v 0.720735 0.009185 -1.597926
v 0.820735 -0.414014 -1.497926
v 0.720735 -0.837212 -1.597926
v 0.820735 -1.260410 -1.497926
v 0.720735 -1.683609 -1.597926
v 0.820735 -2.106807 -1.497926
v 1.120735 2.125176 -1.497926
v 1.220735 1.701978 -1.597926
v 1.120735 1.278780 -1.497926
v 1.220735 0.855581 -1.597926
v 1.120735 0.432383 -1.497926
v 1.220735 0.009185 -1.597926
v 1.120735 -0.414014 -1.497926
v 1.220735 -0.837212 -1.597926
v 1.120735 -1.260410 -1.497926
v 1.220735 -1.683609 -1.597926
v 1.120735 -2.106807 -1.497926
v 1.120735 2.125176 -1.197926
v 1.220735 1.701978 -1.097926
v 1.120735 1.278780 -1.197926
v 1.220735 0.855581 -1.097926
v 1.120735 0.432383 -1.197926
v 1.220735 0.009185 -1.097926
v 1.120735 -0.414014 -1.197926
v 1.220735 -0.837212 -1.097926
v 1.120735 -1.260410 -1.197926
v 1.220735 -1.683609 -1.097926
v 1.120735 -2.106807 -1.197926
vn -0.973200 0.230000 0.000000
vn 0.000000 0.230000 -0.973200
vn 0.973200 0.230000 0.000000
vn 0.000000 0.230000 0.973200
vn 0.000000 -1.000000 0.000000
vn 0.000000 1.000000 0.000000
vn -0.000000 -0.230000 0.973200
vn 0.973200 -0.230000 0.000000
vn 0.000000 -0.230000 -0.973200
vn -0.973200 -0.230000 0.000000
s off
f 9//1 30//1 3//1 1//1
f 30//2 41//2 7//2 3//2
f 41//3 52//3 5//3 7//3
f 52//4 9//4 1//4 5//4
f 1//5 3//5 7//5 5//5
f 6//6 8//6 4//6 2//6
f 6//7 2//7 19//7 42//7
f 42//4 19//4 18//4 43//4
f 43//7 18//7 17//7 44//7
f 44//4 17//4 16//4 45//4
f 45//7 16//7 15//7 46//7
f 46//4 15//4 14//4 47//4
f 47//7 14//7 13//7 48//7
f 48//4 13//4 12//4 49//4
f 49//7 12//7 11//7 50//7
f 50//4 11//4 10//4 51//4
f 51//7 10//7 9//7 52//7
f 8//8 6//8 42//8 31//8
f 31//3 42//3 43//3 32//3
f 32//8 43//8 44//8 33//8
f 33//3 44//3 45//3 34//3
f 34//8 45//8 46//8 35//8
f 35//3 46//3 47//3 36//3
f 36//8 47//8 48//8 37//8
f 37//3 48//3 49//3 38//3
f 38//8 49//8 50//8 39//8
f 39//3 50//3 51//3 40//3
f 40//8 51//8 52//8 41//8
f 4//9 8//9 31//9 20//9
f 20//2 31//2 32//2 21//2
f 21//9 32//9 33//9 22//9
f 22//2 33//2 34//2 23//2
f 23//9 34//9 35//9 24//9
f 24//2 35//2 36//2 25//2
f 25//9 36//9 37//9 26//9
f 26//2 37//2 38//2 27//2
f 27//9 38//9 39//9 28//9
f 28//2 39//2 40//2 29//2
f 29//9 40//9 41//9 30//9
f 2//10 4//10 20//10 19//10
f 19//1 20//1 21//1 18//1
f 18//10 21//10 22//10 17//10
f 17//1 22//1 23//1 16//1
f 16//10 23//10 24//10 15//10
f 15//1 24//1 25//1 14//1
f 14//10 25//10 26//10 13//10
f 13//1 26//1 27//1 12//1
f 12//10 27//10 28//10 11//10
f 11//1 28//1 29//1 10//1
f 10//10 29//10 30//10 9//10
