# Blender v2.74 (sub 0) OBJ File: 'planes.blend'
# www.blender.org
o Circle_Circle.002
v -0.000000 1.000000 -0.000000
v -0.102478 0.980785 -0.000000
v -0.201018 0.923880 -0.000000
v -0.291833 0.831470 -0.000000
v -0.371433 0.707107 -0.000000
v -0.436759 0.555570 -0.000000
v -0.485301 0.382683 -0.000000
v -0.515193 0.195090 -0.000000
v -0.525286 0.000000 -0.000000
v -0.515193 -0.195090 0.000000
v -0.485301 -0.382683 0.000000
v -0.436759 -0.555570 0.000000
v -0.371433 -0.707107 0.000000
v -0.291833 -0.831470 0.000000
v -0.201018 -0.923880 0.000000
v -0.102478 -0.980785 0.000000
v 0.000000 -1.000000 0.000000
v 0.102478 -0.980785 0.000000
v 0.201018 -0.923879 0.000000
v 0.291833 -0.831469 0.000000
v 0.371433 -0.707106 0.000000
v 0.436759 -0.555570 0.000000
v 0.485301 -0.382683 0.000000
v 0.515193 -0.195089 0.000000
v 0.525286 0.000001 -0.000000
v 0.515193 0.195091 -0.000000
v 0.485301 0.382684 -0.000000
v 0.436759 0.555571 -0.000000
v 0.371433 0.707108 -0.000000
v 0.291833 0.831470 -0.000000
v 0.201017 0.923880 -0.000000
v 0.102477 0.980786 -0.000000
v -0.102478 0.980785 0.061618
v -0.000000 1.000000 0.061618
v -0.201018 0.923880 0.061618
v -0.291833 0.831470 0.061618
v -0.371433 0.707107 0.061618
v -0.436759 0.555570 0.061618
v -0.485301 0.382683 0.061618
v -0.515193 0.195090 0.061618
v -0.525286 0.000000 0.061618
v -0.515193 -0.195090 0.061618
v -0.485301 -0.382683 0.061618
v -0.436759 -0.555570 0.061618
v -0.371433 -0.707107 0.061618
v -0.291833 -0.831470 0.061618
v -0.201018 -0.923880 0.061618
v -0.102478 -0.980785 0.061618
v 0.000000 -1.000000 0.061618
v 0.102478 -0.980785 0.061618
v 0.201018 -0.923879 0.061618
v 0.291833 -0.831469 0.061618
v 0.371433 -0.707106 0.061618
v 0.436759 -0.555570 0.061618
v 0.485301 -0.382683 0.061618
v 0.515193 -0.195089 0.061618
v 0.525286 0.000001 0.061618
v 0.515193 0.195091 0.061618
v 0.485301 0.382684 0.061618
v 0.436759 0.555571 0.061618
v 0.371433 0.707108 0.061618
v 0.291833 0.831470 0.061618
v 0.201017 0.923880 0.061618
v 0.102477 0.980786 0.061618
vn -0.000000 -0.000000 -1.000000
vn -0.000000 0.000000 1.000000
vn 0.994500 0.104700 0.000000
vn 1.000000 0.000000 0.000000
vn -0.781900 0.623400 0.000000
vn -0.612200 0.790700 0.000000
vn -0.612200 -0.790700 0.000000
vn -0.781900 -0.623400 0.000000
vn 0.994500 -0.104700 0.000000
vn 0.976800 -0.214200 0.000000
vn -0.347100 0.937800 0.000000
vn -0.000000 1.000000 0.000000
vn -0.883200 -0.469000 0.000000
vn -0.942600 -0.333800 0.000000
vn 0.347100 0.937800 0.000000
vn 0.942600 -0.333800 0.000000
vn 0.883200 -0.469000 0.000000
vn -0.976800 -0.214200 0.000000
vn -0.994500 -0.104700 0.000000
vn 0.612200 0.790700 0.000000
vn 0.781900 0.623400 0.000000
vn 0.781900 -0.623400 0.000000
vn 0.612300 -0.790700 0.000000
vn -1.000000 -0.000000 0.000000
vn -0.994500 0.104700 0.000000
vn 0.883200 0.469000 0.000000
vn 0.942600 0.333800 0.000000
vn 0.347100 -0.937800 0.000000
vn 0.000000 -1.000000 0.000000
vn -0.976800 0.214200 0.000000
vn -0.942600 0.333800 0.000000
vn 0.976800 0.214200 0.000000
vn -0.883200 0.469000 0.000000
vn -0.347100 -0.937800 0.000000
s 1
f 10//1 26//1 18//1
f 58//2 42//2 50//2
f 26//3 58//3 57//4
f 4//5 36//5 35//6
f 15//7 47//7 46//8
f 24//9 56//9 55//10
f 2//11 33//11 34//12
f 13//13 45//13 44//14
f 1//12 34//12 64//15
f 22//16 54//16 53//17
f 11//18 43//18 42//19
f 31//20 63//20 62//21
f 20//22 52//22 51//23
f 9//24 41//24 40//25
f 29//26 61//26 60//27
f 18//28 50//28 49//29
f 7//30 39//30 38//31
f 27//32 59//32 58//3
f 5//33 37//33 36//5
f 16//34 48//34 47//7
f 25//4 57//4 56//9
f 3//6 35//6 33//11
f 14//8 46//8 45//13
f 23//10 55//10 54//16
f 12//14 44//14 43//18
f 32//15 64//15 63//20
f 21//17 53//17 52//22
f 10//19 42//19 41//24
f 30//21 62//21 61//26
f 19//23 51//23 50//28
f 8//25 40//25 39//30
f 28//27 60//27 59//32
f 6//31 38//31 37//33
f 17//29 49//29 48//34
f 4//1 3//1 2//1
f 2//1 5//1 4//1
f 10//1 7//1 6//1
f 10//1 9//1 8//1
f 12//1 11//1 10//1
f 14//1 13//1 12//1
f 16//1 15//1 14//1
f 18//1 17//1 16//1
f 20//1 19//1 18//1
f 22//1 21//1 20//1
f 24//1 23//1 22//1
f 26//1 25//1 24//1
f 28//1 27//1 26//1
f 26//1 29//1 28//1
f 32//1 31//1 30//1
f 2//1 1//1 32//1
f 6//1 5//1 2//1
f 10//1 8//1 7//1
f 18//1 12//1 10//1
f 18//1 16//1 14//1
f 26//1 20//1 18//1
f 26//1 24//1 22//1
f 30//1 29//1 26//1
f 2//1 32//1 30//1
f 10//1 6//1 2//1
f 18//1 14//1 12//1
f 26//1 22//1 20//1
f 2//1 30//1 26//1
f 26//1 10//1 2//1
f 64//2 34//2 33//2
f 62//2 63//2 64//2
f 60//2 61//2 62//2
f 62//2 59//2 60//2
f 56//2 57//2 58//2
f 54//2 55//2 56//2
f 52//2 53//2 54//2
f 54//2 51//2 52//2
f 46//2 49//2 50//2
f 46//2 47//2 48//2
f 42//2 45//2 46//2
f 42//2 43//2 44//2
f 40//2 41//2 42//2
f 38//2 39//2 40//2
f 36//2 37//2 38//2
f 33//2 35//2 36//2
f 58//2 64//2 33//2
f 58//2 59//2 62//2
f 54//2 56//2 58//2
f 50//2 51//2 54//2
f 46//2 48//2 49//2
f 42//2 44//2 45//2
f 33//2 40//2 42//2
f 33//2 36//2 38//2
f 58//2 62//2 64//2
f 50//2 54//2 58//2
f 42//2 46//2 50//2
f 33//2 38//2 40//2
f 42//2 58//2 33//2
f 25//4 26//3 57//4
f 3//6 4//5 35//6
f 14//8 15//7 46//8
f 23//10 24//9 55//10
f 1//12 2//11 34//12
f 12//14 13//13 44//14
f 32//15 1//12 64//15
f 21//17 22//16 53//17
f 10//19 11//18 42//19
f 30//21 31//20 62//21
f 19//23 20//22 51//23
f 8//25 9//24 40//25
f 28//27 29//26 60//27
f 17//29 18//28 49//29
f 6//31 7//30 38//31
f 26//3 27//32 58//3
f 4//5 5//33 36//5
f 15//7 16//34 47//7
f 24//9 25//4 56//9
f 2//11 3//6 33//11
f 13//13 14//8 45//13
f 22//16 23//10 54//16
f 11//18 12//14 43//18
f 31//20 32//15 63//20
f 20//22 21//17 52//22
f 9//24 10//19 41//24
f 29//26 30//21 61//26
f 18//28 19//23 50//28
f 7//30 8//25 39//30
f 27//32 28//27 59//32
f 5//33 6//31 37//33
f 16//34 17//29 48//34
