# Blender v2.74 (sub 0) OBJ File: 'Stuvio_3D_objs_2.blend'
# www.blender.org
o Solid_1_Sphere
v -0.416287 1.795006 -0.115134
v -0.525641 1.499126 -0.080743
v -0.809017 1.243289 0.000000
v -0.657717 0.575943 -0.091178
v -0.706661 -0.077692 -0.091178
v -0.833099 -0.731328 0.000000
v -0.850609 -1.024049 -0.055160
v -0.587785 -1.837490 0.000000
v -0.137403 -2.359891 -0.000000
v 0.000000 -2.440025 -0.000000
v -0.282301 1.695491 -0.149619
v -0.536969 1.711240 -0.239074
v -0.739074 1.243289 -0.329057
v -0.666190 0.653636 -0.313710
v -0.795588 -0.077692 -0.406737
v -0.868833 -0.653636 -0.386830
v -0.726142 -1.243289 -0.256947
v -0.536968 -1.711240 -0.239074
v -0.125524 -2.359891 -0.055887
v -0.206773 1.734587 -0.229645
v -0.393305 1.711240 -0.436810
v -0.541338 1.164984 -0.534413
v -0.487464 0.653636 -0.425564
v -0.556418 -0.000000 -0.553957
v -0.636381 -0.846654 -0.722877
v -0.541338 -1.436307 -0.617321
v -0.363437 -1.804309 -0.334127
v -0.091941 -2.359891 -0.102111
v -0.095491 1.664533 -0.329714
v -0.181635 1.364090 -0.594838
v -0.250000 1.243289 -0.769421
v -0.293892 0.653636 -0.554497
v -0.259851 -0.174547 -0.527908
v -0.293892 -0.846654 -0.920613
v -0.268794 -1.436307 -0.703588
v -0.284313 -1.733062 -0.492153
v -0.042460 -2.359891 -0.130678
v 0.032301 1.673443 -0.223350
v 0.061441 1.364090 -0.620387
v 0.084566 0.896139 -0.840407
v 0.099413 0.653636 -0.743869
v -0.031790 -0.152946 -0.447912
v 0.191541 -0.653636 -0.743869
v 0.084566 -1.243289 -0.804585
v 0.056980 -1.711240 -0.317177
v 0.014363 -2.359891 -0.136651
v 0.154509 1.843587 -0.230402
v 0.293893 1.364090 -0.544858
v 0.404509 1.243289 -0.700630
v 0.475529 0.653636 -0.823639
v 0.277941 -0.152946 -0.401410
v 0.475529 -0.653636 -0.823639
v 0.404509 -1.243289 -0.700630
v 0.293893 -1.751337 -0.509037
v 0.068702 -2.359891 -0.118995
v 0.315596 1.948674 -0.192255
v 0.475529 1.711240 -0.345492
v 0.654509 1.243289 -0.475528
v 0.692178 0.403573 -0.559017
v 0.376706 -0.250062 -0.249197
v 0.471730 -0.653636 -0.559017
v 0.356818 -1.243289 -0.475528
v 0.475529 -1.565678 -0.436660
v 0.111162 -2.359891 -0.080764
v 0.302265 1.962696 -0.064248
v 0.365590 1.365795 -0.175386
v 0.605400 0.897844 -0.168204
v 0.618764 0.403573 -0.197736
v 0.515808 -0.250062 -0.020392
v 0.503830 -0.653636 -0.197736
v 0.493647 -1.243289 -0.168204
v 0.574941 -1.565678 -0.056903
v 0.134401 -2.359891 -0.028568
v 0.302265 1.979361 0.064248
v 0.365590 1.275955 0.069029
v 0.581987 0.897844 0.115025
v 0.688341 0.560857 0.111113
v 0.669291 -0.000000 0.174534
v 0.930274 -0.653636 0.197736
v 0.716260 -1.146744 0.217655
v 0.574941 -1.711240 0.122207
v 0.134401 -2.359891 0.028568
v 0.250001 1.765962 0.181636
v 0.311131 1.492936 0.345492
v 0.490111 1.114824 0.475528
v 0.527438 0.282911 0.385663
v 0.644606 -0.370725 0.472820
v 0.605010 -1.024361 0.444051
v 0.544668 -1.643793 0.475528
v 0.365688 -2.033776 0.262765
v 0.111162 -2.359891 0.080764
v 0.154509 1.719609 0.267617
v 0.293893 1.197659 0.381017
v 0.402836 0.966192 0.718377
v 0.475529 0.483913 0.728147
v 0.500000 -0.000000 0.866025
v 0.311124 -0.823358 0.527493
v 0.294668 -1.643793 0.700629
v 0.153082 -1.974292 0.304760
v 0.068702 -2.359891 0.118995
v 0.032301 1.654756 0.179305
v 0.061441 1.474755 0.456546
v 0.084566 1.006804 0.676566
v 0.099413 0.653636 0.945847
v 0.104529 -0.169723 0.899029
v 0.099413 -0.653636 0.945846
v 0.052361 -1.146744 0.804585
v -0.012707 -1.689180 0.660561
v 0.014363 -2.359891 0.136651
v -0.164755 1.658411 0.271990
v -0.181635 1.474755 0.430997
v -0.250000 1.243289 0.769421
v -0.150910 0.653636 0.629217
v -0.216889 -0.000000 0.951056
v -0.293892 -0.653636 0.904508
v -0.129750 -1.024049 0.564726
v -0.138615 -1.788942 0.421971
v -0.042460 -2.359891 0.130678
v -0.206773 1.830358 0.082671
v -0.393305 1.574537 0.289836
v -0.541338 1.243289 0.601217
v -0.401271 0.805360 0.431482
v -0.577003 -0.000000 0.743145
v -0.445363 -0.533156 0.672765
v -0.154270 -1.024049 0.364778
v -0.350284 -1.788942 0.299764
v -0.091941 -2.359891 0.102111
v 0.010016 1.961419 -0.034801
v -0.282301 1.844061 -0.021285
v -0.536968 1.457749 0.092100
v -0.739074 1.106586 0.182083
v -0.725851 0.653636 0.111538
v -0.604570 0.042787 0.372729
v -0.613109 -0.533156 0.352822
v -0.686751 -1.024049 0.111080
v -0.536968 -1.711240 0.239074
v -0.125524 -2.359891 0.055887
vn -0.707200 -0.583000 -0.399900
vn -0.898200 -0.333200 -0.286800
vn -0.982500 -0.148900 -0.112300
vn -0.966100 0.174100 0.190700
vn -0.974800 0.112600 0.192700
vn -0.977200 -0.166300 -0.132300
vn -0.823100 0.550300 0.140500
vn -0.614900 0.785700 0.067700
vn -0.625400 -0.546700 -0.556800
vn -0.810900 -0.477800 -0.337900
vn -0.885200 -0.256000 -0.388500
vn -0.689800 0.148500 -0.708600
vn -0.543000 0.207800 -0.813600
vn -0.655300 -0.158700 -0.738500
vn -0.678900 0.353400 -0.643600
vn -0.072600 0.993900 0.082600
vn -0.572600 -0.552600 -0.605600
vn -0.364100 -0.611600 -0.702400
vn -0.402500 -0.279500 -0.871700
vn -0.151700 0.352800 -0.923300
vn -0.180400 0.071600 -0.981000
vn -0.557900 -0.238800 -0.794800
vn -0.385800 0.453100 -0.803700
vn 0.341800 0.671400 -0.657600
vn 0.385900 -0.309100 -0.869200
vn 0.277700 -0.656500 -0.701300
vn 0.152900 -0.140300 -0.978200
vn 0.147200 0.518400 -0.842400
vn -0.164400 -0.181500 -0.969600
vn -0.445000 -0.300300 -0.843700
vn 0.185400 0.537200 -0.822800
vn 0.130300 0.723700 -0.677700
vn -0.521800 -0.257900 -0.813100
vn -0.168800 -0.546700 -0.820200
vn 0.039900 -0.058700 -0.997500
vn -0.046000 0.569300 -0.820800
vn -0.044400 -0.398700 -0.916000
vn 0.066700 0.038600 -0.997000
vn -0.008400 0.536700 -0.843800
vn -0.162900 0.641400 -0.749700
vn 0.687900 -0.544400 -0.480000
vn 0.928100 -0.091100 -0.361000
vn 0.985100 -0.137200 0.103600
vn 0.913200 0.390300 -0.117100
vn 0.414500 -0.520000 -0.746800
vn 0.752900 0.149800 -0.640900
vn 0.329500 0.538500 -0.775500
vn -0.092100 0.516800 -0.851100
vn 0.841600 -0.484300 -0.239000
vn 0.924000 0.212600 -0.317700
vn 0.961900 -0.125300 -0.243000
vn 0.927900 0.258000 -0.269200
vn 0.935300 -0.338200 -0.104100
vn 0.981400 0.021400 0.190900
vn 0.746500 0.253300 0.615200
vn 0.881600 0.089000 0.463500
vn 0.820100 -0.487200 -0.300200
vn 0.926100 -0.069300 -0.370900
vn 0.766900 -0.186800 -0.614000
vn 0.633400 0.255700 -0.730400
vn 0.943500 -0.153100 -0.294000
vn 0.982500 0.146100 -0.115400
vn 0.870700 0.477000 0.119900
vn 0.995300 0.095400 0.018700
vn 0.813200 -0.581900 0.007200
vn 0.922400 -0.357100 0.147200
vn 0.839400 -0.183400 0.511600
vn 0.749300 0.124100 0.650500
vn 0.893200 0.125700 0.431700
vn 0.923100 0.083300 0.375400
vn 0.891100 0.443300 -0.097300
vn 0.952200 0.165700 0.256500
vn 0.148100 -0.508800 0.848100
vn 0.293500 -0.689700 0.661900
vn 0.517100 0.093300 0.850800
vn 0.514300 -0.281100 0.810200
vn 0.978000 0.150300 0.144400
vn 0.972000 0.067700 0.225100
vn -0.161500 0.551300 0.818500
vn 0.011200 0.331800 0.943300
vn 0.532100 -0.491900 0.689200
vn -0.034500 -0.519800 0.853600
vn 0.742000 -0.019600 0.670100
vn 0.576300 -0.258500 0.775300
vn 0.308200 0.073000 0.948500
vn 0.324500 0.330100 0.886400
vn 0.397300 0.616600 0.679600
vn 0.280400 0.517300 0.808600
vn -0.597000 -0.480900 0.642200
vn -0.840300 -0.070400 0.537600
vn -0.465800 -0.478000 0.744700
vn 0.014800 -0.000800 0.999900
vn -0.367000 0.184900 0.911700
vn -0.324000 0.089800 0.941800
vn 0.323700 0.577500 0.749500
vn 0.103200 0.765400 0.635200
vn -0.442500 -0.465600 0.766400
vn -0.806200 0.027700 0.591000
vn -0.810400 -0.559400 0.174300
vn -0.662200 -0.103600 0.742100
vn -0.428100 0.418700 0.800900
vn -0.589500 -0.355900 0.725100
vn -0.214300 0.772600 0.597700
vn -0.194100 0.679400 0.707600
vn -0.514500 -0.500100 0.696600
vn -0.395300 0.052400 0.917100
vn -0.549700 -0.497500 0.671000
vn -0.956400 -0.127500 0.262700
vn -0.884800 0.203600 0.419200
vn -0.723100 -0.293100 0.625400
vn -0.807900 0.545600 0.222900
vn -0.710500 0.637200 0.298500
vn -0.500900 -0.858900 -0.106500
vn 0.032400 0.365900 -0.930100
vn -0.414300 -0.858900 -0.301000
vn -0.613000 0.762800 -0.205900
vn -0.256100 -0.858900 -0.443500
vn -0.150900 0.723100 -0.674000
vn -0.053500 -0.858900 -0.509300
vn 0.536900 0.490800 -0.686200
vn 0.158300 -0.858900 -0.487000
vn -0.602300 0.404100 -0.688400
vn 0.342700 -0.858900 -0.380600
vn -0.303700 0.700200 -0.646200
vn 0.467800 -0.858900 -0.208300
vn -0.015500 0.993800 -0.110500
vn 0.512100 -0.858900 -0.000000
vn -0.017300 0.991500 -0.128600
vn 0.467800 -0.858900 0.208300
vn -0.303300 0.515200 0.801600
vn 0.342700 -0.858900 0.380600
vn 0.131800 0.804000 0.579900
vn 0.158300 -0.858900 0.487000
vn -0.666400 0.393600 0.633200
vn -0.053500 -0.858900 0.509300
vn 0.363600 0.550900 0.751200
vn -0.256100 -0.858900 0.443500
vn -0.073300 0.730100 0.679400
vn -0.414300 -0.858900 0.301000
vn -0.333700 0.872300 0.357400
vn -0.500900 -0.858900 0.106500
vn -0.707200 -0.583000 0.399900
vn -0.847500 -0.171700 0.502300
vn -0.767600 -0.147100 0.623800
vn -0.938700 0.121700 0.322700
vn -0.997000 -0.043900 0.063800
vn -0.989600 -0.142800 -0.017300
vn -0.644700 0.635200 0.425200
vn -0.792700 0.498900 0.350200
vn -0.370500 0.927800 0.043900
s off
f 9//1 8//1 18//1 19//1
f 8//2 7//2 17//2 18//2
f 7//3 6//3 16//3 17//3
f 6//4 5//4 15//4 16//4
f 5//5 4//5 14//5 15//5
f 4//6 3//6 13//6 14//6
f 3//7 2//7 12//7 13//7
f 2//8 1//8 11//8 12//8
f 19//9 18//9 27//9 28//9
f 18//10 17//10 26//10 27//10
f 17//11 16//11 25//11 26//11
f 16//12 15//12 24//12 25//12
f 15//13 14//13 23//13 24//13
f 14//14 13//14 22//14 23//14
f 13//15 12//15 21//15 22//15
f 12//16 11//16 20//16 21//16
f 28//17 27//17 36//17 37//17
f 27//18 26//18 35//18 36//18
f 26//19 25//19 34//19 35//19
f 25//20 24//20 33//20 34//20
f 24//21 23//21 32//21 33//21
f 23//22 22//22 31//22 32//22
f 22//23 21//23 30//23 31//23
f 21//24 20//24 29//24 30//24
f 37//25 36//25 45//25 46//25
f 36//26 35//26 44//26 45//26
f 35//27 34//27 43//27 44//27
f 34//28 33//28 42//28 43//28
f 33//29 32//29 41//29 42//29
f 32//30 31//30 40//30 41//30
f 31//31 30//31 39//31 40//31
f 30//32 29//32 38//32 39//32
f 46//33 45//33 54//33 55//33
f 45//34 44//34 53//34 54//34
f 44//35 43//35 52//35 53//35
f 43//36 42//36 51//36 52//36
f 42//37 41//37 50//37 51//37
f 41//38 40//38 49//38 50//38
f 40//39 39//39 48//39 49//39
f 39//40 38//40 47//40 48//40
f 55//41 54//41 63//41 64//41
f 54//42 53//42 62//42 63//42
f 53//43 52//43 61//43 62//43
f 52//44 51//44 60//44 61//44
f 51//45 50//45 59//45 60//45
f 50//46 49//46 58//46 59//46
f 49//47 48//47 57//47 58//47
f 48//48 47//48 56//48 57//48
f 64//49 63//49 72//49 73//49
f 63//50 62//50 71//50 72//50
f 62//51 61//51 70//51 71//51
f 61//52 60//52 69//52 70//52
f 60//53 59//53 68//53 69//53
f 59//54 58//54 67//54 68//54
f 58//55 57//55 66//55 67//55
f 57//56 56//56 65//56 66//56
f 73//57 72//57 81//57 82//57
f 72//58 71//58 80//58 81//58
f 71//59 70//59 79//59 80//59
f 70//60 69//60 78//60 79//60
f 69//61 68//61 77//61 78//61
f 68//62 67//62 76//62 77//62
f 67//63 66//63 75//63 76//63
f 66//64 65//64 74//64 75//64
f 82//65 81//65 90//65 91//65
f 81//66 80//66 89//66 90//66
f 80//67 79//67 88//67 89//67
f 79//68 78//68 87//68 88//68
f 78//69 77//69 86//69 87//69
f 77//70 76//70 85//70 86//70
f 76//71 75//71 84//71 85//71
f 75//72 74//72 83//72 84//72
f 91//73 90//73 99//73 100//73
f 90//74 89//74 98//74 99//74
f 89//75 88//75 97//75 98//75
f 88//76 87//76 96//76 97//76
f 87//77 86//77 95//77 96//77
f 86//78 85//78 94//78 95//78
f 85//79 84//79 93//79 94//79
f 84//80 83//80 92//80 93//80
f 100//81 99//81 108//81 109//81
f 99//82 98//82 107//82 108//82
f 98//83 97//83 106//83 107//83
f 97//84 96//84 105//84 106//84
f 96//85 95//85 104//85 105//85
f 95//86 94//86 103//86 104//86
f 94//87 93//87 102//87 103//87
f 93//88 92//88 101//88 102//88
f 109//89 108//89 117//89 118//89
f 108//90 107//90 116//90 117//90
f 107//91 106//91 115//91 116//91
f 106//92 105//92 114//92 115//92
f 105//93 104//93 113//93 114//93
f 104//94 103//94 112//94 113//94
f 103//95 102//95 111//95 112//95
f 102//96 101//96 110//96 111//96
f 118//97 117//97 126//97 127//97
f 117//98 116//98 125//98 126//98
f 116//99 115//99 124//99 125//99
f 115//100 114//100 123//100 124//100
f 114//101 113//101 122//101 123//101
f 113//102 112//102 121//102 122//102
f 112//103 111//103 120//103 121//103
f 111//104 110//104 119//104 120//104
f 127//105 126//105 136//105 137//105
f 126//106 125//106 135//106 136//106
f 125//107 124//107 134//107 135//107
f 124//108 123//108 133//108 134//108
f 123//109 122//109 132//109 133//109
f 122//110 121//110 131//110 132//110
f 121//111 120//111 130//111 131//111
f 120//112 119//112 129//112 130//112
f 10//113 9//113 19//113
f 1//114 128//114 11//114
f 10//115 19//115 28//115
f 11//116 128//116 20//116
f 10//117 28//117 37//117
f 20//118 128//118 29//118
f 10//119 37//119 46//119
f 29//120 128//120 38//120
f 10//121 46//121 55//121
f 38//122 128//122 47//122
f 10//123 55//123 64//123
f 47//124 128//124 56//124
f 10//125 64//125 73//125
f 56//126 128//126 65//126
f 10//127 73//127 82//127
f 65//128 128//128 74//128
f 10//129 82//129 91//129
f 74//130 128//130 83//130
f 10//131 91//131 100//131
f 83//132 128//132 92//132
f 10//133 100//133 109//133
f 92//134 128//134 101//134
f 10//135 109//135 118//135
f 101//136 128//136 110//136
f 10//137 118//137 127//137
f 110//138 128//138 119//138
f 10//139 127//139 137//139
f 119//140 128//140 129//140
f 10//141 137//141 9//141
f 137//142 136//142 8//142 9//142
f 136//143 135//143 7//143 8//143
f 135//144 134//144 6//144 7//144
f 134//145 133//145 5//145 6//145
f 133//146 132//146 4//146 5//146
f 132//147 131//147 3//147 4//147
f 131//148 130//148 2//148 3//148
f 130//149 129//149 1//149 2//149
f 129//150 128//150 1//150
