# Blender v2.74 (sub 0) OBJ File: 'Stuvio_3D_objs.blend'
# www.blender.org
o Cylinder.009
v -0.395960 -0.642824 -0.235924
v -0.395960 3.557176 -0.235924
v -0.389099 -0.642824 -0.235587
v -0.389099 3.557176 -0.235587
v -0.382304 -0.642824 -0.234579
v -0.382304 3.557176 -0.234579
v -0.375640 -0.642824 -0.232910
v -0.375640 3.557176 -0.232910
v -0.369172 -0.642824 -0.230595
v -0.369172 3.557176 -0.230595
v -0.362963 -0.642824 -0.227658
v -0.362963 3.557176 -0.227658
v -0.357070 -0.642824 -0.224127
v -0.357070 3.557176 -0.224127
v -0.351553 -0.642824 -0.220035
v -0.351553 3.557176 -0.220035
v -0.346463 -0.642824 -0.215421
v -0.346463 3.557176 -0.215421
v -0.341850 -0.642824 -0.210331
v -0.341850 3.557176 -0.210331
v -0.337757 -0.642824 -0.204814
v -0.337757 3.557176 -0.204814
v -0.334226 -0.642824 -0.198922
v -0.334226 3.557176 -0.198922
v -0.331289 -0.642824 -0.192712
v -0.331289 3.557176 -0.192712
v -0.328975 -0.642824 -0.186244
v -0.328975 3.557176 -0.186244
v -0.327305 -0.642824 -0.179580
v -0.327305 3.557176 -0.179580
v -0.326297 -0.642824 -0.172785
v -0.326297 3.557176 -0.172785
v -0.325960 -0.642824 -0.165924
v -0.325960 3.557176 -0.165924
v -0.326297 -0.642824 -0.159063
v -0.326297 3.557176 -0.159063
v -0.327305 -0.642824 -0.152268
v -0.327305 3.557176 -0.152268
v -0.328975 -0.642824 -0.145604
v -0.328975 3.557176 -0.145604
v -0.331289 -0.642824 -0.139136
v -0.331289 3.557176 -0.139136
v -0.334226 -0.642824 -0.132926
v -0.334226 3.557176 -0.132926
v -0.337757 -0.642824 -0.127034
v -0.337757 3.557176 -0.127034
v -0.341850 -0.642824 -0.121516
v -0.341850 3.557176 -0.121516
v -0.346463 -0.642824 -0.116426
v -0.346463 3.557176 -0.116426
v -0.351553 -0.642824 -0.111813
v -0.351553 3.557176 -0.111813
v -0.357070 -0.642824 -0.107721
v -0.357070 3.557176 -0.107721
v -0.362963 -0.642824 -0.104189
v -0.362963 3.557176 -0.104189
v -0.369173 -0.642824 -0.101252
v -0.369173 3.557176 -0.101252
v -0.375640 -0.642824 -0.098938
v -0.375640 3.557176 -0.098938
v -0.382304 -0.642824 -0.097269
v -0.382304 3.557176 -0.097269
v -0.389099 -0.642824 -0.096261
v -0.389099 3.557176 -0.096261
v -0.395960 -0.642824 -0.095924
v -0.395960 3.557176 -0.095924
v -0.402822 -0.642824 -0.096261
v -0.402822 3.557176 -0.096261
v -0.409617 -0.642824 -0.097269
v -0.409617 3.557176 -0.097269
v -0.416280 -0.642824 -0.098938
v -0.416280 3.557176 -0.098938
v -0.422748 -0.642824 -0.101252
v -0.422748 3.557176 -0.101252
v -0.428958 -0.642824 -0.104189
v -0.428958 3.557176 -0.104189
v -0.434850 -0.642824 -0.107721
v -0.434850 3.557176 -0.107721
v -0.440368 -0.642824 -0.111813
v -0.440368 3.557176 -0.111813
v -0.445458 -0.642824 -0.116426
v -0.445458 3.557176 -0.116426
v -0.450071 -0.642824 -0.121516
v -0.450071 3.557176 -0.121516
v -0.454163 -0.642824 -0.127034
v -0.454163 3.557176 -0.127034
v -0.457695 -0.642824 -0.132926
v -0.457695 3.557176 -0.132926
v -0.460632 -0.642824 -0.139136
v -0.460632 3.557176 -0.139136
v -0.462946 -0.642824 -0.145604
v -0.462946 3.557176 -0.145604
v -0.464615 -0.642824 -0.152268
v -0.464615 3.557176 -0.152268
v -0.465623 -0.642824 -0.159063
v -0.465623 3.557176 -0.159063
v -0.465960 -0.642824 -0.165924
v -0.465960 3.557176 -0.165924
v -0.465623 -0.642824 -0.172785
v -0.465623 3.557176 -0.172785
v -0.464615 -0.642824 -0.179580
v -0.464615 3.557176 -0.179580
v -0.462946 -0.642824 -0.186244
v -0.462946 3.557176 -0.186244
v -0.460632 -0.642824 -0.192712
v -0.460632 3.557176 -0.192712
v -0.457695 -0.642824 -0.198922
v -0.457695 3.557176 -0.198922
v -0.454163 -0.642824 -0.204814
v -0.454163 3.557176 -0.204814
v -0.450071 -0.642824 -0.210331
v -0.450071 3.557176 -0.210331
v -0.445458 -0.642824 -0.215421
v -0.445458 3.557176 -0.215421
v -0.440368 -0.642824 -0.220034
v -0.440368 3.557176 -0.220034
v -0.434850 -0.642824 -0.224127
v -0.434850 3.557176 -0.224127
v -0.428958 -0.642824 -0.227658
v -0.428958 3.557176 -0.227658
v -0.422748 -0.642824 -0.230595
v -0.422748 3.557176 -0.230595
v -0.416280 -0.642824 -0.232910
v -0.416280 3.557176 -0.232910
v -0.409617 -0.642824 -0.234579
v -0.409617 3.557176 -0.234579
v -0.402822 -0.642824 -0.235587
v -0.402822 3.557176 -0.235587
vn 0.000000 1.000000 0.000000
vn 0.000000 -1.000000 0.000000
vn 0.000000 1.000000 0.000800
vn 0.000000 1.000000 0.000100
vn 0.000000 1.000000 -0.000400
vn 0.000000 1.000000 0.000400
vn 0.000000 1.000000 -0.000500
vn 0.000000 1.000000 -0.000800
vn 0.000000 1.000000 -0.000300
vn 0.000000 1.000000 0.000200
vn 0.000000 1.000000 0.000300
vn 0.000000 1.000000 -0.000200
vn 0.000000 1.000000 -0.000100
vn 0.000000 -1.000000 -0.000100
vn 0.000000 -1.000000 0.000100
vn 0.000000 -1.000000 0.000200
vn 0.000000 -1.000000 -0.000200
vn 0.000000 0.000000 -1.000000
vn 0.098000 0.000000 -0.995200
vn 0.195100 0.000000 -0.980800
vn 0.290300 0.000000 -0.956900
vn 0.382700 0.000000 -0.923900
vn 0.471400 0.000000 -0.881900
vn 0.555600 0.000000 -0.831500
vn 0.634400 0.000000 -0.773000
vn 0.707100 0.000000 -0.707100
vn 0.773000 0.000000 -0.634400
vn 0.831500 0.000000 -0.555600
vn 0.881900 0.000000 -0.471400
vn 0.923900 0.000000 -0.382700
vn 0.956900 0.000000 -0.290300
vn 0.980800 0.000000 -0.195100
vn 0.995200 0.000000 -0.098000
vn 1.000000 0.000000 0.000000
vn 0.995200 0.000000 0.098000
vn 0.980800 0.000000 0.195100
vn 0.956900 0.000000 0.290300
vn 0.923900 0.000000 0.382700
vn 0.881900 0.000000 0.471400
vn 0.831500 0.000000 0.555600
vn 0.773000 0.000000 0.634400
vn 0.707100 0.000000 0.707100
vn 0.634400 0.000000 0.773000
vn 0.555600 0.000000 0.831500
vn 0.471400 0.000000 0.881900
vn 0.382700 0.000000 0.923900
vn 0.290300 0.000000 0.956900
vn 0.195100 0.000000 0.980800
vn 0.098000 0.000000 0.995200
vn -0.000000 0.000000 1.000000
vn -0.098000 0.000000 0.995200
vn -0.195100 0.000000 0.980800
vn -0.290300 0.000000 0.956900
vn -0.382700 0.000000 0.923900
vn -0.471400 0.000000 0.881900
vn -0.555600 0.000000 0.831500
vn -0.634400 0.000000 0.773000
vn -0.707100 0.000000 0.707100
vn -0.773000 0.000000 0.634400
vn -0.831500 0.000000 0.555600
vn -0.881900 0.000000 0.471400
vn -0.923900 0.000000 0.382700
vn -0.956900 0.000000 0.290300
vn -0.980800 0.000000 0.195100
vn -0.995200 0.000000 0.098000
vn -1.000000 0.000000 -0.000000
vn -0.995200 0.000000 -0.098000
vn -0.980800 0.000000 -0.195100
vn -0.956900 0.000000 -0.290300
vn -0.923900 0.000000 -0.382700
vn -0.881900 0.000000 -0.471400
vn -0.831500 0.000000 -0.555600
vn -0.773000 0.000000 -0.634400
vn -0.707100 0.000000 -0.707100
vn -0.634400 0.000000 -0.773000
vn -0.555600 0.000000 -0.831500
vn -0.471400 0.000000 -0.881900
vn -0.382700 0.000000 -0.923900
vn -0.290300 0.000000 -0.956900
vn -0.195100 0.000000 -0.980800
vn -0.098000 0.000000 -0.995200
s off
f 4//1 116//1 68//1
f 1//2 33//2 65//2
f 12//1 6//1 4//1
f 12//3 10//3 8//3
f 20//4 14//4 12//4
f 20//1 18//1 16//1
f 24//5 22//5 20//5
f 28//6 26//6 24//6
f 36//1 30//1 28//1
f 36//1 34//1 32//1
f 44//1 38//1 36//1
f 44//5 42//5 40//5
f 48//5 46//5 44//5
f 52//1 50//1 48//1
f 56//1 54//1 52//1
f 52//7 58//7 56//7
f 68//1 62//1 60//1
f 68//1 66//1 64//1
f 72//1 70//1 68//1
f 76//8 74//8 72//8
f 80//1 78//1 76//1
f 76//1 82//1 80//1
f 88//6 86//6 84//6
f 92//5 90//5 88//5
f 100//1 94//1 92//1
f 100//1 98//1 96//1
f 108//1 102//1 100//1
f 108//6 106//6 104//6
f 112//5 110//5 108//5
f 116//1 114//1 112//1
f 120//1 118//1 116//1
f 124//3 122//3 120//3
f 128//1 126//1 124//1
f 4//8 2//8 128//8
f 12//1 8//1 6//1
f 20//9 16//9 14//9
f 36//1 24//1 20//1
f 36//1 32//1 30//1
f 44//10 40//10 38//10
f 36//1 48//1 44//1
f 60//1 58//1 52//1
f 68//7 64//7 62//7
f 76//1 72//1 68//1
f 84//11 82//11 76//11
f 92//4 88//4 84//4
f 100//1 96//1 94//1
f 108//12 104//12 102//12
f 100//1 112//1 108//1
f 124//12 120//12 116//12
f 116//13 128//13 124//13
f 36//1 12//1 4//1
f 36//1 28//1 24//1
f 52//1 48//1 36//1
f 68//1 60//1 52//1
f 100//1 76//1 68//1
f 100//1 92//1 84//1
f 116//1 112//1 100//1
f 4//1 128//1 116//1
f 36//1 20//1 12//1
f 4//1 52//1 36//1
f 100//1 84//1 76//1
f 68//1 116//1 100//1
f 68//1 52//1 4//1
f 125//2 127//2 1//2
f 1//14 123//14 125//14
f 117//2 119//2 121//2
f 121//2 115//2 117//2
f 105//2 111//2 113//2
f 105//2 107//2 109//2
f 101//2 103//2 105//2
f 97//2 99//2 101//2
f 93//2 95//2 97//2
f 89//14 91//14 93//14
f 81//2 87//2 89//2
f 81//15 83//15 85//15
f 77//15 79//15 81//15
f 81//2 75//2 77//2
f 65//2 71//2 73//2
f 65//16 67//16 69//16
f 61//16 63//16 65//16
f 57//17 59//17 61//17
f 53//17 55//17 57//17
f 57//14 51//14 53//14
f 41//2 47//2 49//2
f 41//2 43//2 45//2
f 37//15 39//15 41//15
f 33//2 35//2 37//2
f 29//2 31//2 33//2
f 25//15 27//15 29//15
f 17//14 23//14 25//14
f 17//14 19//14 21//14
f 13//2 15//2 17//2
f 9//15 11//15 13//15
f 5//16 7//16 9//16
f 1//17 3//17 5//17
f 121//14 123//14 1//14
f 113//2 115//2 121//2
f 105//2 109//2 111//2
f 113//2 101//2 105//2
f 81//2 93//2 97//2
f 81//14 85//14 87//14
f 73//2 75//2 81//2
f 65//14 69//14 71//14
f 57//2 61//2 65//2
f 49//2 51//2 57//2
f 41//2 45//2 47//2
f 49//2 37//2 41//2
f 17//2 29//2 33//2
f 17//15 21//15 23//15
f 1//2 13//2 17//2
f 1//2 5//2 9//2
f 113//2 121//2 1//2
f 97//2 101//2 113//2
f 81//2 89//2 93//2
f 65//2 73//2 81//2
f 33//2 57//2 65//2
f 33//2 37//2 49//2
f 17//2 25//2 29//2
f 1//2 9//2 13//2
f 65//2 113//2 1//2
f 65//2 81//2 97//2
f 33//2 49//2 57//2
f 1//2 17//2 33//2
f 65//2 97//2 113//2
s 1
f 2//18 4//19 3//19
f 4//19 6//20 5//20
f 6//20 8//21 7//21
f 8//21 10//22 9//22
f 10//22 12//23 11//23
f 12//23 14//24 13//24
f 14//24 16//25 15//25
f 16//25 18//26 17//26
f 18//26 20//27 19//27
f 20//27 22//28 21//28
f 22//28 24//29 23//29
f 24//29 26//30 25//30
f 26//30 28//31 27//31
f 28//31 30//32 29//32
f 30//32 32//33 31//33
f 32//33 34//34 33//34
f 34//34 36//35 35//35
f 36//35 38//36 37//36
f 38//36 40//37 39//37
f 40//37 42//38 41//38
f 42//38 44//39 43//39
f 44//39 46//40 45//40
f 46//40 48//41 47//41
f 48//41 50//42 49//42
f 50//42 52//43 51//43
f 52//43 54//44 53//44
f 54//44 56//45 55//45
f 56//45 58//46 57//46
f 58//46 60//47 59//47
f 60//47 62//48 61//48
f 62//48 64//49 63//49
f 64//49 66//50 65//50
f 66//50 68//51 67//51
f 68//51 70//52 69//52
f 70//52 72//53 71//53
f 72//53 74//54 73//54
f 74//54 76//55 75//55
f 76//55 78//56 77//56
f 78//56 80//57 79//57
f 80//57 82//58 81//58
f 82//58 84//59 83//59
f 84//59 86//60 85//60
f 86//60 88//61 87//61
f 88//61 90//62 89//62
f 90//62 92//63 91//63
f 92//63 94//64 93//64
f 94//64 96//65 95//65
f 96//65 98//66 97//66
f 98//66 100//67 99//67
f 100//67 102//68 101//68
f 102//68 104//69 103//69
f 104//69 106//70 105//70
f 106//70 108//71 107//71
f 108//71 110//72 109//72
f 110//72 112//73 111//73
f 112//73 114//74 113//74
f 114//74 116//75 115//75
f 116//75 118//76 117//76
f 118//76 120//77 119//77
f 120//77 122//78 121//78
f 122//78 124//79 123//79
f 124//79 126//80 125//80
f 128//81 2//18 1//18
f 126//80 128//81 127//81
f 1//18 2//18 3//19
f 3//19 4//19 5//20
f 5//20 6//20 7//21
f 7//21 8//21 9//22
f 9//22 10//22 11//23
f 11//23 12//23 13//24
f 13//24 14//24 15//25
f 15//25 16//25 17//26
f 17//26 18//26 19//27
f 19//27 20//27 21//28
f 21//28 22//28 23//29
f 23//29 24//29 25//30
f 25//30 26//30 27//31
f 27//31 28//31 29//32
f 29//32 30//32 31//33
f 31//33 32//33 33//34
f 33//34 34//34 35//35
f 35//35 36//35 37//36
f 37//36 38//36 39//37
f 39//37 40//37 41//38
f 41//38 42//38 43//39
f 43//39 44//39 45//40
f 45//40 46//40 47//41
f 47//41 48//41 49//42
f 49//42 50//42 51//43
f 51//43 52//43 53//44
f 53//44 54//44 55//45
f 55//45 56//45 57//46
f 57//46 58//46 59//47
f 59//47 60//47 61//48
f 61//48 62//48 63//49
f 63//49 64//49 65//50
f 65//50 66//50 67//51
f 67//51 68//51 69//52
f 69//52 70//52 71//53
f 71//53 72//53 73//54
f 73//54 74//54 75//55
f 75//55 76//55 77//56
f 77//56 78//56 79//57
f 79//57 80//57 81//58
f 81//58 82//58 83//59
f 83//59 84//59 85//60
f 85//60 86//60 87//61
f 87//61 88//61 89//62
f 89//62 90//62 91//63
f 91//63 92//63 93//64
f 93//64 94//64 95//65
f 95//65 96//65 97//66
f 97//66 98//66 99//67
f 99//67 100//67 101//68
f 101//68 102//68 103//69
f 103//69 104//69 105//70
f 105//70 106//70 107//71
f 107//71 108//71 109//72
f 109//72 110//72 111//73
f 111//73 112//73 113//74
f 113//74 114//74 115//75
f 115//75 116//75 117//76
f 117//76 118//76 119//77
f 119//77 120//77 121//78
f 121//78 122//78 123//79
f 123//79 124//79 125//80
f 127//81 128//81 1//18
f 125//80 126//80 127//81
