# Blender v2.74 (sub 0) OBJ File: 'solids.blend'
# www.blender.org
o Solid_10_Plane.002
v 0.452548 0.010969 0.000000
v 0.000000 0.010337 0.452548
v 0.000000 0.010337 -0.452548
v -0.452548 0.010337 0.000000
v -0.000000 -2.049635 -0.000001
v 0.000000 2.066148 0.000000
vn 0.698800 -0.153500 -0.698600
vn -0.698700 -0.153500 -0.698700
vn -0.698700 -0.153500 0.698700
vn 0.698800 -0.153500 0.698600
vn -0.698700 0.153800 -0.698700
vn -0.698700 0.153800 0.698700
vn 0.698600 0.153800 0.698800
vn 0.698600 0.153800 -0.698800
s off
f 1//1 5//1 3//1
f 3//2 5//2 4//2
f 4//3 5//3 2//3
f 2//4 5//4 1//4
f 4//5 6//5 3//5
f 2//6 6//6 4//6
f 1//7 6//7 2//7
f 3//8 6//8 1//8
